<?xml version="1.0" encoding="UTF-8" standalone="no"?>
<!-- Created with Inkscape (http://www.inkscape.org/) -->

<svg
   id="svg4155"
   version="1.1"
   width="5193.75"
   height="3806.25"
   viewBox="0 0 5193.75 3806.25"
   xmlns="http://www.w3.org/2000/svg"
   xmlns:svg="http://www.w3.org/2000/svg"
   xmlns:rdf="http://www.w3.org/1999/02/22-rdf-syntax-ns#"
   xmlns:cc="http://creativecommons.org/ns#"
   xmlns:dc="http://purl.org/dc/elements/1.1/">
  <metadata
     id="metadata4161">
    <rdf:RDF>
      <cc:Work
         rdf:about="">
        <dc:format>image/svg+xml</dc:format>
        <dc:type
           rdf:resource="http://purl.org/dc/dcmitype/StillImage" />
      </cc:Work>
    </rdf:RDF>
  </metadata>
  <defs
     id="defs4159">
    <marker
       orient="auto"
       refY="0"
       refX="0"
       id="Arrow1Mend"
       style="overflow:visible">
      <path
         id="path16139"
         d="M 0,0 5,-5 -12.5,0 5,5 Z"
         style="fill:#000000;fill-opacity:1;fill-rule:evenodd;stroke:#000000;stroke-width:1pt;stroke-opacity:1"
         transform="matrix(-0.4,0,0,-0.4,-4,0)" />
    </marker>
    <pattern
       patternUnits="userSpaceOnUse"
       width="115.56174"
       height="54.065575"
       patternTransform="translate(213.04102,-153.40971)"
       id="pattern5629">
      <path
         id="path5622"
         d="m 115.5332,0.00737022 c -0.10842,0.03594 -0.21808,0.0964 -0.32813,0.16796 0.15617,-0.07493 0.44908,-0.20806 0.32813,-0.16796 z m -0.32813,0.16796 C 113.49175,0.99745022 96.64462,8.4483202 91.87109,18.7476 85.74189,10.8706 64.73147,9.4311902 46.81445,9.4311902 25.57844,9.4311902 12.21257,11.45438 0,23.81987 c 13.56951,9.65159 28.29327,15.60546 49.52929,15.60546 17.6479,0 36.40801,-2.24273 42.24805,-10.0957 3.19999,8.10808 12.27736,16.4633 17.53711,21.08789 -4.9607,-11.63194 1.14565,-47.1563398 5.89062,-50.24218978 z M 109.31445,50.41752 c 0.89669,2.10258 2.14793,3.439677 3.8418,3.646487 0.45735,0.05584 -1.26899,-1.384357 -3.8418,-3.646487 z"
         style="color:#000000;clip-rule:nonzero;display:inline;overflow:visible;visibility:visible;opacity:1;color-interpolation:sRGB;color-interpolation-filters:linearRGB;fill:#f57900;fill-opacity:1;fill-rule:nonzero;stroke:none;stroke-width:10;stroke-linecap:round;stroke-linejoin:round;stroke-miterlimit:4;stroke-dasharray:none;stroke-dashoffset:0;stroke-opacity:1;marker:none;enable-background:accumulate" />
    </pattern>
  </defs>
  <path
     style="fill:#ffffff;fill-opacity:1;stroke:#ffffff;stroke-width:50;stroke-miterlimit:4;stroke-dasharray:none;stroke-opacity:1"
     d="m 3617.7221,3407.2162 c -37.6435,-42.232 -49.8335,-83.733 -39.3815,-134.0781 6.5915,-31.7529 11.87,-40.1424 45.7815,-72.7637 21.082,-20.28 43.234,-44.2635 49.227,-53.2967 15.537,-23.4187 14.6295,-77.791 -1.74,-104.2774 -22.63,-36.6163 -101.757,-54.1532 -277.9065,-61.5925 -85.604,-3.6153 -115.6195,-12.2098 -196.396,-56.2354 -28.9555,-15.7815 -54.503,-28.6937 -56.7725,-28.6937 -7.579,0 -52.941,-46.6306 -63.84,-65.625 -5.917,-10.3125 -13.3255,-22.9688 -16.463,-28.125 -18.9135,-31.0821 -22.7785,-49.5351 -22.7785,-108.7587 0,-56.1029 1.95,-67.2812 17.5485,-100.5979 9.652,-20.6149 22.694,-43.1149 28.9825,-50 6.2885,-6.8851 17.433,-24.4716 24.766,-39.0809 7.3325,-14.6094 15.8655,-26.5625 18.9615,-26.5625 9.4655,0 61.8175,-55.563 66.3485,-70.4183 2.3415,-7.6762 9.8315,-26.3797 16.6445,-41.5633 16.663,-37.1351 11.2835,-69.1679 -17.204,-102.4492 -11.92,-13.9256 -21.6725,-27.2988 -21.6725,-29.7183 0,-7.3537 -63.6945,-29.5717 -95.7125,-33.3866 -97.233,-11.5851 -159.935,-39.5449 -188.011,-83.8373 -8.019,-12.6511 -29.262,-36.6964 -47.2065,-53.434 -31.583,-29.4589 -33.615,-30.3369 -63.552,-27.4603 -56.433,5.4225 -81.1795,44.0272 -82.573,128.8158 -1.2625,76.7733 6.7805,143.0237 27.576,227.147 23.258,94.084 18.8135,117.4415 -34.9,183.4266 -22.0295,27.0623 -91.3018,65.3779 -118.1991,65.3779 -8.4377,0 -28.8875,8.2175 -45.444,18.2612 -28.641,17.3743 -32.029,17.9816 -69.7694,12.5045 -21.8166,-3.1662 -41.8895,-4.3829 -44.6064,-2.7037 -8.3743,5.1755 -77.1851,-10.9199 -96.4655,-22.5642 -11.3467,-6.8527 -24.7302,-9.7166 -35.4185,-7.5789 -12.7597,2.5519 -20.1279,-0.082 -28.6366,-10.2337 -17.5438,-20.9331 -42.2962,-31.4352 -74.0896,-31.4352 -27.3735,0 -30.9168,2.1197 -67.9707,40.6613 -21.5004,22.3637 -45.0822,52.5981 -52.404,67.1875 -15.3703,30.6269 -49.154,66.9793 -85.4491,91.9464 -26.0664,17.9307 -131.5565,50.2048 -164.098,50.2048 -21.0467,0 -98.9692,-22.8895 -156.965,-46.108 -31.5662,-12.6375 -48.1012,-15.4429 -82.1579,-13.9395 -48.5148,2.1417 -57.6706,6.7793 -127.8036,64.735 -25.9985,21.4843 -49.4575,39.0625 -52.1309,39.0625 -2.6735,0 -15.2083,7.0312 -27.8551,15.625 -32.1399,21.8395 -84.7765,22.0659 -113.137,0.487 -10.9425,-8.3262 -27.6564,-17.0752 -37.142,-19.4424 -21.0587,-5.2553 -25.4472,-11.5555 -20.0012,-28.7141 3.7604,-11.8481 7.1239,-12.7262 33.2159,-8.6721 88.4516,13.7436 98.5999,8.037 230.4727,-129.6003 65.8908,-68.7711 85.3019,-72.064 232.9341,-39.5151 159.91,35.2558 210.3161,9.3902 315.7834,-162.0427 16.3351,-26.5522 62.6069,-62.5476 112.3416,-87.3922 23.729,-11.8536 41.0273,-15.6052 71.875,-15.5881 39.6841,0.025 67.352,7.8171 175,49.3043 45.3928,17.4942 98.7553,25.7149 118.4112,18.2417 54.3709,-20.6717 71.5324,-100.8984 37.8768,-177.0657 -10.4997,-23.7622 -22.5827,-70.7965 -37.7319,-146.875 -7.1208,-35.7607 -5.7322,-133.6572 2.0057,-141.395 6.6312,-6.6315 5.3548,-27.3552 -1.6848,-27.3552 -3.3676,0 -11.8581,11.2418 -18.8678,24.9819 -16.018,31.398 -73.7588,89.6144 -104.6773,105.5395 -12.9013,6.6451 -37.5194,19.3266 -54.7069,28.1811 -17.8103,9.1755 -51.4094,18.9155 -78.125,22.6475 -53.307,7.4468 -146.9547,2.2672 -165.625,-9.1606 -17.0742,-10.4509 -82.6402,-22.2607 -109.375,-19.7007 -12.0312,1.152 -33.125,5.1791 -46.875,8.9493 -68.2839,18.7226 -284.387,20.2064 -329.0448,2.2591 -28.3676,-11.4004 -25.1214,-0.5944 9.7726,32.5308 60.1302,57.0823 89.8257,131.9638 78.9157,198.9976 -7.9639,48.932 -20.7044,75.3091 -41.4895,85.8975 -9.9847,5.0864 -27.1358,15.8459 -38.1135,23.91 -23.706,17.4143 -77.053,33.4607 -109.5212,32.9434 -35.0348,-0.5582 -75.2428,-18.2549 -164.5255,-72.412 -66.6422,-40.4239 -86.6083,-49.5985 -112.6793,-51.7774 -24.3165,-2.0322 -34.2215,-0.112 -42.5894,8.2557 -6.6102,6.6103 -13.1601,8.6472 -16.6342,5.1732 -9.1593,-9.1594 13.8526,-48.0997 34.1122,-57.724 36.0255,-17.1141 58.3471,-12.1219 150.35,33.6254 82.0474,40.7971 89.7605,43.3833 128.125,42.9601 56.7214,-0.6259 96.5212,-19.1272 106.5563,-49.5337 4.0584,-12.2972 5.6977,-31.3202 3.6429,-42.2733 -5.3993,-28.7804 -68.7955,-114.4583 -128.1161,-173.1445 -49.574,-49.0439 -53.038,-51.2153 -108.7332,-68.1562 -31.6404,-9.6242 -74.403,-25.1861 -95.028,-34.5822 -47.1528,-21.4812 -93.4229,-22.9033 -124.2999,-3.8202 -20.9147,12.926 -21.2014,13.7134 -22.371,61.4507 -1.6135,65.8539 -1.1439,88.2368 3.3749,160.857 3.6715,59.0045 2.9728,64.315 -12.4933,94.953 -9.0103,17.8492 -29.3617,43.5474 -45.2254,57.1073 -52.76761,45.1043 -164.32091,69.626 -194.92151,42.8476 -5.6725,-4.964 -19.2173,-13.5331 -30.0995,-19.0423 -10.8822,-5.5092 -37.6009,-25.6967 -59.375,-44.8611 -62.9267,-55.3845 -109.8963,-68.1984 -148.7006,-40.5673 -18.1975,12.9578 -20.9961,13.384 -29.8361,4.544 -8.84,-8.84 -8.1594,-11.6514 7.2562,-29.9717 22.125,-26.294 54.0435,-43.0408 90.1799,-47.3152 24.9629,-2.9526 36.7102,0.1755 84.1819,22.4196 30.3438,14.2181 62.6875,31.3988 71.875,38.1791 22.0531,16.2755 63.7394,17.58 91.09,2.8508 28.6275,-15.417 49.8269,-57.4553 44.943,-89.1223 -8.4599,-54.8556 -13.0525,-121.5101 -12.6881,-184.1507 0.3845,-66.1023 0.7191,-67.5981 21.875,-97.7958 48.94781,-69.8673 116.86681,-105.7141 186.39461,-98.3767 38.6093,4.0745 94.7197,13.2674 120.239,19.6992 16.3632,4.1242 16.4087,4.0293 20.8539,-43.4071 6.8507,-73.1068 44.3532,-133.7531 109.622,-177.2726 52.8023,-35.2071 119.3101,-60.7828 130.0731,-50.0198 3.4858,3.4858 9.6404,4.2967 13.6769,1.802 5.285,-3.2663 5.4374,-6.4377 0.5444,-11.3305 -9.1924,-9.1923 -8.5982,-27.5251 1.0179,-31.4053 4.2969,-1.7338 1.4397,-3.3744 -6.3492,-3.6458 -11.7539,-0.4095 -13.922,-3.6413 -12.7511,-19.0072 0.8823,-11.579 -3.4735,-23.8696 -11.6285,-32.8125 -7.1716,-7.8643 -20.2952,-26.0014 -29.1635,-40.3047 -11.8104,-19.0483 -21.6317,-27.1714 -36.7097,-30.3623 -23.8491,-5.047 -48.7103,-25.6392 -48.7103,-40.3462 0,-5.5883 -3.375,-13.5355 -7.5,-17.6605 -10.448,-10.4481 -48.8112,-9.382 -61.0529,1.6967 -6.2078,5.6178 -28.231,10.3592 -56.5951,12.1842 -49.6024,3.1915 -62.352,11.1293 -62.352,38.8198 0,18.7895 -12.4812,25.5781 -22.3109,12.1351 -10.1124,-13.8296 -27.52,-5.5669 -40.4365,19.1937 -5.0201,9.6235 -18.3451,25.669 -29.6111,35.6565 -17.0485,15.114 -20.1928,21.9558 -18.75,40.7991 1.6902,22.0739 1.2257,22.5908 -18.579,20.6776 -15.0946,-1.4583 -20.3125,0.5487 -20.3125,7.8125 0,5.3761 2.8125,9.7748 6.25,9.7748 3.4375,0 6.25,4.2187 6.25,9.375 0,8.8395 -11.0622,12.3543 -30.4347,9.6699 -4.7078,-0.6523 -18.7703,6.9249 -31.25,16.8383 -12.47971,9.9135 -39.56531,28.6656 -60.19031,41.6714 -20.625,13.0059 -46.7101,30.1744 -57.9669,38.1524 -15.0581,10.672 -33.2269,15.6601 -68.75,18.8746 -28.1645,2.5486 -52.6969,8.2469 -58.8759,13.6756 -7.4701,6.5628 -18.5251,8.2781 -37.5,5.8186 -63.3577,-8.2121 -96.1566,-14.1365 -103.4587,-18.6876 -4.3167,-2.6904 -13.441,-0.9124 -20.4264,3.9805 -20.1379,14.1051 -65.7913,-3.3364 -78.4259,-29.962 -7.4122,-15.6199 -18.5927,-24.1158 -48.3684,-36.7544 -21.3003,-9.041 -46.5016,-16.4301 -56.0029,-16.4203 -21.4278,0.025 -58.0329,-23.2623 -66.8138,-42.5005 -6.1404,-13.453 -40.1743,-31.0306 -52.8057,-27.2728 -3.1045,0.9236 -25.6045,2.9498 -50,4.5025 -36.5551,2.3267 -49.0928,6.1415 -71.2941,21.6923 -24.8206,17.3855 -38.6863,19.6189 -38.6863,6.2312 0,-2.9576 14.1984,-20.9128 31.5521,-39.9005 35.6538,-39.011 67.9083,-52.0465 144.7141,-58.4856 40.7507,-3.4164 124.9213,6.9658 139.3588,17.1896 3.4375,2.4342 27.3438,10.5825 53.125,18.1073 25.7813,7.5249 55.1962,18.2423 65.3665,23.8166 18.413,10.092 59.5361,21.8286 119.0085,33.9651 58.1675,11.8702 96.846,0.9015 168.3128,-47.7313 58.315,-39.6831 100.6914,-81.572 166.80711,-164.888 70.1676,-88.4221 113.9062,-129.2208 168.0033,-156.711 50.6578,-25.7424 80.1913,-32.4106 144.9348,-32.7236 59.5376,-0.288 68.0542,2.3813 164.442,51.5391 55.4668,28.2881 56.9245,29.6284 104.6875,96.2538 26.6406,37.1614 48.4375,71.3996 48.4375,76.0848 0,4.6851 2.5878,13.4022 5.7506,19.3712 3.1628,5.969 11.7527,27.7277 19.0888,48.3527 22.3961,62.9655 34.1071,80.9947 54.1503,83.3655 9.8369,1.1635 20.6978,4.2914 24.1353,6.9507 3.4375,2.6593 13.6393,6.5962 22.6706,8.7486 9.0314,2.1524 21.0491,10.9774 26.7062,19.6112 11.6553,17.7882 87.9505,69.8413 125.6232,85.7075 42.117,17.738 97.9376,31.0799 113.5938,27.1504 8.1739,-2.0515 30.9592,-5.2027 50.634,-7.0027 55.7961,-5.1047 80.7945,-13.901 102.8692,-36.1969 11.2216,-11.3343 35.8718,-31.9342 54.778,-45.7777 64.781,-47.4337 83.0612,-69.8679 98.5,-120.8829 7.7687,-25.6706 14.0967,-50.8925 14.0623,-56.0487 -0.035,-5.1563 -9.9063,-17.2293 -21.9375,-26.829 -28.522,-22.7577 -30.4545,-54.1568 -4.9702,-80.7566 16.4699,-17.1909 16.6348,-18.1012 6.4147,-35.4026 -5.7695,-9.7668 -8.7703,-19.4774 -6.6687,-21.5791 2.1017,-2.1017 -4.8955,-39.7619 -15.5493,-83.6895 -46.9865,-193.7342 -49.7946,-242.68779 -19.639,-342.36824 7.2794,-24.0625 17.2512,-57.8125 22.1596,-75 15.5677,-54.51275 91.106,-197.1615 130.1709,-245.8183 108.2877,-134.87667 255.4526,-201.17287 428.8326,-193.18467 113.246,5.2176 209.055,41.4871 298.128,112.8593 88.1015,70.59392 139.853,153.17672 180.8825,288.64367 16.153,53.3323 14.176,228.04534 -3.557,314.36334 -6.8515,33.3502 -14.333,74.6992 -16.626,91.8867 -4.494,33.6914 -69.443,175.8204 -93.339,204.2564 -7.745,9.2161 -20.514,30.0447 -28.3765,46.2859 -7.862,16.2412 -31.755,48.0757 -53.095,70.7436 -25.6245,27.2183 -40.361,48.6425 -43.396,63.0891 -6.5185,31.0256 -25.952,50 -51.211,50 -13.2955,0 -25.763,5.0673 -34.5995,14.0625 -7.5975,7.7343 -22.363,17.1259 -32.8125,20.8701 -10.449,3.7442 -18.567,9.3692 -18.04,12.5 0.527,3.1308 15.996,11.6735 34.375,18.9837 24.0535,9.5673 38.564,20.5122 51.7885,39.0625 10.104,14.1742 22.7605,25.8121 28.125,25.8621 5.364,0.05 21.016,4.0171 34.7815,8.8158 13.766,4.7986 42.338,10.2649 63.4945,12.1473 21.156,1.8824 45.335,5.1466 53.7305,7.2538 31.91,8.0089 116.691,-22.8928 183.5195,-66.8909 47.759,-31.443 68.9715,-53.8382 75.4165,-79.6199 3.46,-13.8415 15.6435,-44.182 39.1205,-97.422 3.0315,-6.875 15.4775,-42.5053 27.657,-79.1783 16.7965,-50.5745 32.002,-81.3182 62.958,-127.2952 44.2285,-65.6887 60.2705,-78.877 150.325,-123.5823 42.306,-21.0015 58.1755,-25.4111 103.125,-28.6544 114.05,-8.2292 204.193,36.9854 303.7905,152.3774 114.204,132.3154 189.7285,194.8448 270.3535,223.8358 38.428,13.8179 93.6425,11.6553 125.7025,-4.9236 10.0555,-5.1999 23.571,-9.4544 30.034,-9.4544 6.463,0 25.587,-7.0195 42.498,-15.5988 16.9105,-8.5794 33.2105,-15.6107 36.2215,-15.625 3.0115,-0.01 29.73,-9.4321 59.375,-20.9282 72.602,-28.1545 111.1105,-36.6052 165.8265,-36.3906 44.8815,0.176 94.3277,9.3209 99.4887,18.3999 1.412,2.4847 4.547,15.4709 6.9665,28.8582 l 4.3985,24.3407 -47.163,-4.2738 c -54.2077,-4.9122 -78.8572,3.6035 -92.4537,31.9397 -9.496,19.7914 -51.31,45.3327 -67.348,41.1386 -6.0625,-1.5854 -28.4765,5.928 -49.8085,16.6964 -29.3605,14.8213 -40.8905,24.6164 -47.447,40.3089 -10.8635,26.0001 -57.2105,44.9464 -76.647,31.3327 -7.34,-5.1412 -14.66,-5.9749 -20.4265,-2.3264 -4.9425,3.1274 -18.83,5.829 -30.8615,6.0034 -12.031,0.1745 -28.906,4.3366 -37.5,9.2493 -20.9105,11.9535 -65.0795,11.9535 -75,0 -5.6115,-6.7617 -20.4585,-9.375 -53.262,-9.375 -41.208,0 -48.3975,-1.9621 -76.509,-20.8799 -17.065,-11.4839 -36.0835,-22.8201 -42.263,-25.1914 -6.1795,-2.3712 -30.1435,-16.8815 -53.2535,-32.245 -26.8065,-17.8208 -48.9345,-27.9337 -61.1215,-27.9337 -22.8365,0 -32.045,-11.4388 -17.6705,-21.9497 16.404,-11.9951 12.1555,-16.6876 -13.108,-14.4766 -23.414,2.0492 -23.4355,2.0285 -21.704,-20.5886 1.444,-18.8553 -1.6905,-25.6624 -18.75,-40.7203 -11.266,-9.9441 -25.405,-25.6728 -31.421,-34.9526 -14.323,-22.0951 -34.895,-33.3545 -44.1085,-24.1412 -10.3785,10.3788 -16.829,8.2052 -16.829,-5.671 0,-24.5519 -19.8385,-35.5679 -65.453,-36.3452 -26.4315,-0.4505 -47.827,-4.3237 -56.968,-10.3131 -25.706,-16.843 -65.079,-8.0953 -65.079,14.4588 0,15.9129 -30.8125,42.6307 -55.062,47.7446 -14.019,2.9564 -22.5895,9.365 -26.588,19.8817 -3.245,8.5354 -14.3265,27.766 -24.625,42.7347 -21.1865,30.7936 -22.741,41.1488 -9.2645,61.7163 8.457,12.9072 8.438,16.8834 -0.175,37.5019 -5.432,13.0005 -16.1125,25.526 -24.4785,28.7066 -21.569,8.2005 -25.9405,18.9137 -7.718,18.9137 8.429,0 16.944,4.2187 18.923,9.375 1.9785,5.1562 10.0135,9.4054 17.856,9.4426 7.8425,0.035 26.915,4.0812 42.3835,8.9866 142.2985,45.1249 218.07,122.1204 228.372,232.0612 4.4455,47.4364 4.491,47.5313 20.854,43.4071 22.859,-5.7613 79.027,-15.176 117.4955,-19.694 69.2675,-8.1355 140.921,28.1046 186.545,94.3487 l 24.0855,34.9706 0.385,66.9886 c 0.36,62.5188 -4.238,129.1931 -12.692,184.0101 -4.884,31.667 16.3155,73.7053 44.943,89.1223 27.3505,14.7292 69.037,13.4247 91.09,-2.8508 9.1875,-6.7803 41.531,-23.961 71.875,-38.1791 47.4715,-22.2436 59.219,-25.3722 84.182,-22.4195 36.136,4.2743 68.0545,21.0211 90.1795,47.3151 15.416,18.3204 16.0965,21.1317 7.2565,29.9717 -8.84,8.84 -11.6385,8.4138 -29.836,-4.544 -38.8045,-27.6311 -85.774,-14.8172 -148.701,40.5673 -21.774,19.1644 -48.4925,39.3519 -59.375,44.8611 -10.882,5.5092 -24.427,14.0783 -30.0995,19.0423 -30.6005,26.7784 -142.1535,2.2567 -194.9215,-42.8476 -15.8635,-13.5599 -36.215,-39.2581 -45.225,-57.1073 -15.4665,-30.638 -16.165,-35.9485 -12.4935,-94.953 4.519,-72.6201 4.9885,-95.0031 3.375,-160.857 -1.1695,-47.7373 -1.4565,-48.5247 -22.371,-61.4507 -30.877,-19.0831 -77.147,-17.661 -124.3,3.8202 -20.625,9.3961 -63.3875,24.958 -95.028,34.5822 -55.695,16.9409 -59.159,19.1123 -108.733,68.1562 -59.321,58.6862 -122.717,144.3641 -128.1165,173.1445 -2.0545,10.9531 -0.415,29.9761 3.643,42.2733 10.035,30.4065 49.835,48.9078 106.5565,49.5337 38.3645,0.423 46.0775,-2.163 128.125,-42.9601 92.003,-45.7473 114.3245,-50.7395 150.35,-33.6254 20.2595,9.6243 43.2715,48.5646 34.112,57.724 -3.474,3.474 -10.024,1.4371 -16.634,-5.1732 -8.368,-8.3678 -18.273,-10.2878 -42.5895,-8.2557 -26.071,2.1789 -46.037,11.3535 -112.6795,51.7774 -89.2825,54.1571 -129.4905,71.8536 -164.5255,72.412 -32.468,0.5175 -85.815,-15.5291 -109.521,-32.9434 -10.9775,-8.0642 -28.129,-18.8236 -38.1135,-23.91 -20.785,-10.5884 -33.5255,-36.9655 -41.4895,-85.8975 -10.91,-67.0338 18.7855,-141.9153 78.9155,-198.9976 18.4805,-17.5434 32.1025,-33.3952 30.271,-35.2264 -1.831,-1.8311 -16.0685,0.505 -31.6385,5.1907 -32.9645,9.9208 -188.7055,13.7041 -256.967,6.2423 -52.0295,-5.6874 -53.566,-3.7799 -33.3945,41.4608 29.557,66.2913 34.613,94.1881 25.98,143.3516 -15.119,86.0979 -28.772,115.0416 -77.7675,164.8632 -24.478,24.8906 -50.8335,47.1628 -58.568,49.4939 -7.7345,2.331 -14.0625,6.6379 -14.0625,9.5705 0,2.9328 -9.1405,7.3252 -20.3125,9.761 -65.306,14.2385 -110.891,51.3647 -110.891,90.3145 0,31.2022 38.43,81.19 78.0785,101.5614 48.144,24.7363 84.1785,31.1289 184.375,32.7083 116.8075,1.8413 146.198,5.7936 203.125,27.3153 57.515,21.7439 92.4885,57.102 128.614,130.0274 23.8255,48.0956 27.328,60.3821 27.3225,95.8403 0,76.547 -44.3735,146.8115 -102.583,162.4858 -26.588,7.1593 -37.1345,17.4696 -55.7505,54.5 -16.628,33.0767 -16.8955,64.2134 -0.728,84.7669 6.875,8.7401 12.5,18.9632 12.5,22.7179 0,12.2011 -28.735,7.2036 -41.6055,-7.2358 z m 85.3555,-1355.1012 c 46.4305,-16.8914 111.8435,-37.2962 132.6115,-41.3668 9.3425,-1.8311 19.987,-6.9443 23.6535,-11.3627 9.973,-12.0163 15.89,-71.8568 7.1055,-71.8568 -3.916,0 -7.1205,-5.5272 -7.1205,-12.2825 0,-20.3831 -35.9395,-54.8222 -80.447,-77.0883 -46.2515,-23.1388 -75.5445,-26.9468 -122.641,-15.9432 -35.5045,8.2954 -73.004,43.5302 -114.116,107.2251 -12.8815,19.9574 -33.9675,48.9566 -46.8585,64.4426 -12.8905,15.4861 -23.4375,30.4536 -23.4375,33.2611 0,34.8418 157.399,51.8385 231.25,24.9715 z M 1815.076,2018.0964 c 11.7553,-6.9065 22.4302,-15.7282 23.722,-19.6036 1.2918,-3.8755 -8.3261,-19.8648 -21.3732,-35.5316 -13.0471,-15.6669 -34.2615,-44.814 -47.143,-64.7714 -41.112,-63.6949 -78.6112,-98.9297 -114.1161,-107.2251 -47.0964,-11.0036 -76.3894,-7.1956 -122.641,15.9432 -44.5075,22.2661 -80.447,56.7052 -80.447,77.0883 0,6.7553 -3.2042,12.2825 -7.1205,12.2825 -8.7845,0 -2.8672,59.8405 7.1055,71.8568 3.6669,4.4184 14.311,9.5316 23.6536,11.3627 21.839,4.2805 88.5652,25.254 132.6114,41.6827 48.0848,17.9351 173.1633,16.06 205.7483,-3.0845 z m 1468.2236,-18.7137 c 35.791,-16.6619 41.266,-32.8023 9.858,-29.0598 -10.013,1.1931 -21.0245,4.4756 -24.471,7.2945 -8.1515,6.6671 -56.763,-2.6595 -83.164,-15.9558 -13.062,-6.5786 -40.4255,-11.1809 -74.2845,-12.4942 -49.188,-1.908 -55.209,-3.5798 -73.0705,-20.2895 -43.6085,-40.7973 -73.552,-52.042 -57.683,-21.6617 8.329,15.9454 65.0025,64.0625 75.4545,64.0625 2.5435,0 13.7005,4.3069 24.794,9.571 73.499,34.8777 152.024,42.062 202.5665,18.533 z m -1114.632,-28.4926 c 25.8386,-7.0887 54.6981,-16.9152 64.1323,-21.8365 9.434,-4.9214 19.6589,-8.9652 22.7219,-8.9864 11.2509,-0.078 67.6934,-47.4347 76.3991,-64.101 15.869,-30.3803 -14.0745,-19.1356 -57.6833,21.6617 -17.8611,16.7097 -23.8823,18.3815 -73.0701,20.2895 -33.8593,1.3133 -61.2225,5.9156 -74.2848,12.4942 -26.4008,13.2963 -75.0125,22.6229 -83.1638,15.9558 -10.8344,-8.8617 -42.4993,-9.9875 -45.3175,-1.6112 -4.1764,12.4132 59.4802,38.8909 93.6691,38.9614 16.2898,0.03 50.7585,-5.7388 76.5971,-12.8275 z"
     id="path4165" />
  <text
     style="font-size:24px;line-height:1.25;white-space:pre;shape-inside:url(#path4165);inline-size:5193.75"
     id="text19410"
     xml:space="preserve"><tspan
       x="0"
       y="407.09148"
       id="tspan31355"><tspan
         style="font-weight:bold;font-family:Lato;-inkscape-font-specification:'Lato Bold'"
         id="tspan31353">Lorem </tspan></tspan><tspan
       x="0"
       y="437.57449"
       id="tspan31359"><tspan
         style="font-weight:bold;font-family:Lato;-inkscape-font-specification:'Lato Bold'"
         id="tspan31357">ipsum dolor sit amet, consectetuer </tspan></tspan><tspan
       x="0"
       y="468.05749"
       id="tspan31363"><tspan
         style="font-weight:bold;font-family:Lato;-inkscape-font-specification:'Lato Bold'"
         id="tspan31361">adipiscing elit. Vestibulum ante ipsum primis in </tspan></tspan><tspan
       x="0"
       y="498.54049"
       id="tspan31367"><tspan
         style="font-weight:bold;font-family:Lato;-inkscape-font-specification:'Lato Bold'"
         id="tspan31365">faucibus orci luctus et ultrices posuere cubilia Curae; </tspan></tspan><tspan
       x="0"
       y="529.02349"
       id="tspan31371"><tspan
         style="font-weight:bold;font-family:Lato;-inkscape-font-specification:'Lato Bold'"
         id="tspan31369">Donec gravida, ante vel ornare lacinia, orci enim porta est, eget </tspan></tspan><tspan
       x="0"
       y="559.50646"
       id="tspan31375"><tspan
         style="font-weight:bold;font-family:Lato;-inkscape-font-specification:'Lato Bold'"
         id="tspan31373">sollicitudin lectus lectus eget lacus. Cras gravida. Mauris ac massa </tspan></tspan><tspan
       x="0"
       y="589.98943"
       id="tspan31379"><tspan
         style="font-weight:bold;font-family:Lato;-inkscape-font-specification:'Lato Bold'"
         id="tspan31377">vestibulum nisl facilisis viverra. In tempus urna. Pellentesque tempor. </tspan></tspan><tspan
       x="0"
       y="620.4724"
       id="tspan31383"><tspan
         style="font-weight:bold;font-family:Lato;-inkscape-font-specification:'Lato Bold'"
         id="tspan31381">Phasellus lacinia iaculis mi. Morbi volutpat. Proin lectus orci, venenatis </tspan></tspan><tspan
       x="0"
       y="650.95538"
       id="tspan31387"><tspan
         style="font-weight:bold;font-family:Lato;-inkscape-font-specification:'Lato Bold'"
         id="tspan31385">pharetra, egestas id, tincidunt vel, eros. Phasellus lacinia iaculis mi. Nam </tspan></tspan><tspan
       x="0"
       y="681.43835"
       id="tspan31391"><tspan
         style="font-weight:bold;font-family:Lato;-inkscape-font-specification:'Lato Bold'"
         id="tspan31389">consectetuer mollis dolor. Aenean ultrices turpis. Pellentesque ac turpis. Sed </tspan></tspan><tspan
       x="0"
       y="711.92132"
       id="tspan31395"><tspan
         style="font-weight:bold;font-family:Lato;-inkscape-font-specification:'Lato Bold'"
         id="tspan31393">elementum, felis quis porttitor sollicitudin, augue nulla sodales sapien, sit amet posuere </tspan></tspan><tspan
       x="0"
       y="742.40429"
       id="tspan31399"><tspan
         style="font-weight:bold;font-family:Lato;-inkscape-font-specification:'Lato Bold'"
         id="tspan31397">quam purus at lacus. Mauris tempor ultrices justo. Proin lectus orci, venenatis pharetra, </tspan></tspan><tspan
       x="0"
       y="772.88726"
       id="tspan31403"><tspan
         style="font-weight:bold;font-family:Lato;-inkscape-font-specification:'Lato Bold'"
         id="tspan31401">egestas id, tincidunt vel, eros. Aliquam imperdiet lobortis metus. Quisque vehicula porttitor </tspan></tspan><tspan
       x="0"
       y="803.37023"
       id="tspan31407"><tspan
         style="font-weight:bold;font-family:Lato;-inkscape-font-specification:'Lato Bold'"
         id="tspan31405">odio. Pellentesque tempor. Nullam libero nunc, tristique eget, laoreet eu, sagittis id, ante. </tspan></tspan><tspan
       x="0"
       y="833.8532"
       id="tspan31411"><tspan
         style="font-weight:bold;font-family:Lato;-inkscape-font-specification:'Lato Bold'"
         id="tspan31409">Nullam sapien mauris, venenatis at, fermentum at, tempus eu, urna. Sed quis elit. Proin lectus orci, </tspan></tspan><tspan
       x="0"
       y="864.33617"
       id="tspan31415"><tspan
         style="font-weight:bold;font-family:Lato;-inkscape-font-specification:'Lato Bold'"
         id="tspan31413">venenatis pharetra, egestas id, tincidunt vel, eros. Sed fringilla. 
</tspan></tspan><tspan
       x="0"
       y="894.81915"
       id="tspan31419"><tspan
         style="font-weight:bold;font-family:Lato;-inkscape-font-specification:'Lato Bold'"
         id="tspan31417">
</tspan></tspan><tspan
       x="0"
       y="925.30212"
       id="tspan31423"><tspan
         style="font-weight:bold;font-family:Lato;-inkscape-font-specification:'Lato Bold'"
         id="tspan31421">Nam massa turpis, nonummy et, consectetuer id, placerat ac, ante. Aenean ligula. Donec sit amet </tspan></tspan><tspan
       x="0"
       y="955.78509"
       id="tspan31427"><tspan
         style="font-weight:bold;font-family:Lato;-inkscape-font-specification:'Lato Bold'"
         id="tspan31425">enim. Quisque aliquam, nulla ac scelerisque convallis, nisi ligula sagittis risus, at nonummy arcu urna </tspan></tspan><tspan
       x="0"
       y="986.26806"
       id="tspan31431"><tspan
         style="font-weight:bold;font-family:Lato;-inkscape-font-specification:'Lato Bold'"
         id="tspan31429">pulvinar nibh. Suspendisse potenti. Lorem ipsum dolor sit amet, consectetuer adipiscing elit. Nulla </tspan></tspan><tspan
       x="0"
       y="1016.751"
       id="tspan31435"><tspan
         style="font-weight:bold;font-family:Lato;-inkscape-font-specification:'Lato Bold'"
         id="tspan31433">facilisi. Integer risus velit, facilisis eget, viverra et, venenatis id, leo. Donec at diam a tellus dignissim </tspan></tspan><tspan
       x="0"
       y="1047.2341"
       id="tspan31439"><tspan
         style="font-weight:bold;font-family:Lato;-inkscape-font-specification:'Lato Bold'"
         id="tspan31437">vestibulum. Quisque aliquam, nulla ac scelerisque convallis, nisi ligula sagittis risus, at nonummy arcu </tspan></tspan><tspan
       x="0"
       y="1077.7171"
       id="tspan31443"><tspan
         dx="0 0 0 0 0 0 0 0 0 0 0 0 0 0 0 0 0 0 0 0 0 0 0 0 0 0 0 0 0 0 0 0 0 0 0 0 0 0 0 0 0 0 0 0 0 0 0 0 0 0 0 0 0 0 0 0 0 0 0 0 0 0 0 0 0 0 0 0 0 0 0 0 0 0 0 0 0 0 0 0 0 0 0 0 0 0 0 0 0 0 0 0 0 0 0 0 0 0 0 0 0 0 -0.00010681152"
         style="font-weight:bold;font-family:Lato;-inkscape-font-specification:'Lato Bold'"
         id="tspan31441">urna pulvinar nibh. Nunc in turpis ac lacus eleifend sagittis. Nam molestie nisl at metus. In commodo, </tspan></tspan><tspan
       x="0"
       y="1108.2001"
       id="tspan31447"><tspan
         style="font-weight:bold;font-family:Lato;-inkscape-font-specification:'Lato Bold'"
         id="tspan31445">dolor quis fermentum ullamcorper, urna massa volutpat massa, vitae mattis purus arcu nec nulla. </tspan></tspan><tspan
       x="0"
       y="1138.6832"
       id="tspan31451"><tspan
         style="font-weight:bold;font-family:Lato;-inkscape-font-specification:'Lato Bold'"
         id="tspan31449">Curabitur risus urna, placerat et, luctus pulvinar, auctor vel, orci. Nunc metus. Quisque facilisis, </tspan></tspan><tspan
       x="0"
       y="1169.1662"
       id="tspan31455"><tspan
         style="font-weight:bold;font-family:Lato;-inkscape-font-specification:'Lato Bold'"
         id="tspan31453">urna sit amet pulvinar mollis, purus arcu adipiscing velit, non condimentum diam purus eu massa. </tspan></tspan><tspan
       x="0"
       y="1199.6492"
       id="tspan31459"><tspan
         style="font-weight:bold;font-family:Lato;-inkscape-font-specification:'Lato Bold'"
         id="tspan31457">Sed quis elit. Sed quis elit. Donec rutrum venenatis dui. Phasellus nisi metus, tempus sit amet, </tspan></tspan><tspan
       x="0"
       y="1230.1323"
       id="tspan31465"><tspan
         style="font-weight:bold;font-family:Lato;-inkscape-font-specification:'Lato Bold'"
         id="tspan31461">ultrices ac, porta nec, felis. Aenean turpis ipsum, rhoncus vitae, posuere vitae, euismod sed, </tspan><tspan
         style="font-weight:bold;font-family:Lato;-inkscape-font-specification:'Lato Bold'"
         id="tspan31463">ligula. Nunc metus. </tspan></tspan><tspan
       x="0"
       y="1260.6153"
       id="tspan31473"><tspan
         style="font-weight:bold;font-family:Lato;-inkscape-font-specification:'Lato Bold'"
         id="tspan31467">Integer porta. </tspan><tspan
         style="font-weight:bold;font-family:Lato;-inkscape-font-specification:'Lato Bold'"
         id="tspan31469">Aenean turpis ipsum, rhoncus vitae, posuere vitae, euismod sed, ligula. Praesent scelerisque. </tspan><tspan
         style="font-weight:bold;font-family:Lato;-inkscape-font-specification:'Lato Bold'"
         id="tspan31471">Quisque facilisis, urna sit amet </tspan></tspan><tspan
       x="0"
       y="1291.0983"
       id="tspan31481"><tspan
         style="font-weight:bold;font-family:Lato;-inkscape-font-specification:'Lato Bold'"
         id="tspan31475">pulvinar mollis, purus arcu </tspan><tspan
         style="font-weight:bold;font-family:Lato;-inkscape-font-specification:'Lato Bold'"
         id="tspan31477">adipiscing velit, non condimentum diam purus eu massa. Aenean justo ipsum, luctus ut, </tspan><tspan
         style="font-weight:bold;font-family:Lato;-inkscape-font-specification:'Lato Bold'"
         id="tspan31479">volutpat laoreet, vehicula in, libero. </tspan></tspan><tspan
       x="0"
       y="1321.5814"
       id="tspan31489"><tspan
         style="font-weight:bold;font-family:Lato;-inkscape-font-specification:'Lato Bold'"
         id="tspan31483">Maecenas viverra. 
</tspan><tspan
         style="font-weight:bold;font-family:Lato;-inkscape-font-specification:'Lato Bold'"
         id="tspan31485">
</tspan><tspan
         style="font-weight:bold;font-family:Lato;-inkscape-font-specification:'Lato Bold'"
         id="tspan31487">Suspendisse molestie sem. Mauris tempor </tspan></tspan><tspan
       x="0"
       y="1352.0644"
       id="tspan31497"><tspan
         style="font-weight:bold;font-family:Lato;-inkscape-font-specification:'Lato Bold'"
         id="tspan31491">ultrices justo. Sed a lorem ut est tincidunt </tspan><tspan
         style="font-weight:bold;font-family:Lato;-inkscape-font-specification:'Lato Bold'"
         id="tspan31493">consectetuer. Vivamus feugiat. Donec ut purus. Nullam venenatis gravida orci. </tspan><tspan
         style="font-weight:bold;font-family:Lato;-inkscape-font-specification:'Lato Bold'"
         id="tspan31495">Phasellus at purus sed purus cursus iaculis. Nam </tspan></tspan><tspan
       x="0"
       y="1382.5474"
       id="tspan31507"><tspan
         style="font-weight:bold;font-family:Lato;-inkscape-font-specification:'Lato Bold'"
         id="tspan31499">malesuada sapien eu nibh. Donec interdum </tspan><tspan
         style="font-weight:bold;font-family:Lato;-inkscape-font-specification:'Lato Bold'"
         id="tspan31501">vestibulum libero. Suspendisse lectus. Nunc metus. Maecenas justo. Aenean </tspan><tspan
         style="font-weight:bold;font-family:Lato;-inkscape-font-specification:'Lato Bold'"
         id="tspan31503">scelerisque metus </tspan><tspan
         style="font-weight:bold;font-family:Lato;-inkscape-font-specification:'Lato Bold'"
         id="tspan31505">eget sem. </tspan></tspan><tspan
       x="0"
       y="1413.0304"
       id="tspan31519"><tspan
         style="font-weight:bold;font-family:Lato;-inkscape-font-specification:'Lato Bold'"
         id="tspan31509">Vestibulum ante ipsum </tspan><tspan
         style="font-weight:bold;font-family:Lato;-inkscape-font-specification:'Lato Bold'"
         id="tspan31511">primis in faucibus orci </tspan><tspan
         style="font-weight:bold;font-family:Lato;-inkscape-font-specification:'Lato Bold'"
         id="tspan31513">luctus et ultrices posuere cubilia Curae; Suspendisse potenti. Sed elementum, felis </tspan><tspan
         style="font-weight:bold;font-family:Lato;-inkscape-font-specification:'Lato Bold'"
         id="tspan31515">quis porttitor </tspan><tspan
         style="font-weight:bold;font-family:Lato;-inkscape-font-specification:'Lato Bold'"
         id="tspan31517">sollicitudin, augue </tspan></tspan><tspan
       x="0"
       y="1443.5135"
       id="tspan31531"><tspan
         style="font-weight:bold;font-family:Lato;-inkscape-font-specification:'Lato Bold'"
         id="tspan31521">nulla sodales </tspan><tspan
         style="font-weight:bold;font-family:Lato;-inkscape-font-specification:'Lato Bold'"
         id="tspan31523">sapien, sit amet </tspan><tspan
         style="font-weight:bold;font-family:Lato;-inkscape-font-specification:'Lato Bold'"
         id="tspan31525">posuere quam purus at lacus. Vestibulum viverra varius enim. Aliquam metus. Nam </tspan><tspan
         style="font-weight:bold;font-family:Lato;-inkscape-font-specification:'Lato Bold'"
         id="tspan31527">a nunc. </tspan><tspan
         style="font-weight:bold;font-family:Lato;-inkscape-font-specification:'Lato Bold'"
         id="tspan31529">Pellentesque </tspan></tspan><tspan
       x="0"
       y="1473.9965"
       id="tspan31543"><tspan
         style="font-weight:bold;font-family:Lato;-inkscape-font-specification:'Lato Bold'"
         id="tspan31533">tempor. Sed a </tspan><tspan
         style="font-weight:bold;font-family:Lato;-inkscape-font-specification:'Lato Bold'"
         id="tspan31535">lorem ut est </tspan><tspan
         style="font-weight:bold;font-family:Lato;-inkscape-font-specification:'Lato Bold'"
         id="tspan31537">tincidunt consectetuer. Etiam cursus purus interdum libero. Suspendisse </tspan><tspan
         style="font-weight:bold;font-family:Lato;-inkscape-font-specification:'Lato Bold'"
         id="tspan31539">molestie sem. </tspan><tspan
         style="font-weight:bold;font-family:Lato;-inkscape-font-specification:'Lato Bold'"
         id="tspan31541">Praesent </tspan></tspan><tspan
       x="0"
       y="1504.4795"
       id="tspan31557"><tspan
         style="font-weight:bold;font-family:Lato;-inkscape-font-specification:'Lato Bold'"
         id="tspan31545">semper, neque </tspan><tspan
         style="font-weight:bold;font-family:Lato;-inkscape-font-specification:'Lato Bold'"
         id="tspan31547">vel condimentum </tspan><tspan
         style="font-weight:bold;font-family:Lato;-inkscape-font-specification:'Lato Bold'"
         id="tspan31549">hendrerit, lectus elit pretiumligula, nec consequat nisl velit at dui. Etiam </tspan><tspan
         style="font-weight:bold;font-family:Lato;-inkscape-font-specification:'Lato Bold'"
         id="tspan31551">sodales orci nec </tspan><tspan
         style="font-weight:bold;font-family:Lato;-inkscape-font-specification:'Lato Bold'"
         id="tspan31553">ligula. Donec </tspan><tspan
         style="font-weight:bold;font-family:Lato;-inkscape-font-specification:'Lato Bold'"
         id="tspan31555">nonummy lacinia leo. </tspan></tspan><tspan
       x="0"
       y="1534.9626"
       id="tspan31571"><tspan
         style="font-weight:bold;font-family:Lato;-inkscape-font-specification:'Lato Bold'"
         id="tspan31559">Etiam non </tspan><tspan
         style="font-weight:bold;font-family:Lato;-inkscape-font-specification:'Lato Bold'"
         id="tspan31561">neque ac mi </tspan><tspan
         style="font-weight:bold;font-family:Lato;-inkscape-font-specification:'Lato Bold'"
         id="tspan31563">vestibulum placerat. Vestibulum ante ipsum primis in faucibus orci luctus </tspan><tspan
         style="font-weight:bold;font-family:Lato;-inkscape-font-specification:'Lato Bold'"
         id="tspan31565">et ultrices </tspan><tspan
         style="font-weight:bold;font-family:Lato;-inkscape-font-specification:'Lato Bold'"
         id="tspan31567">posuere cubilia </tspan><tspan
         style="font-weight:bold;font-family:Lato;-inkscape-font-specification:'Lato Bold'"
         id="tspan31569">Curae; Suspendisse </tspan></tspan><tspan
       x="0"
       y="1565.4456"
       id="tspan31587"><tspan
         style="font-weight:bold;font-family:Lato;-inkscape-font-specification:'Lato Bold'"
         id="tspan31573">potenti. </tspan><tspan
         style="font-weight:bold;font-family:Lato;-inkscape-font-specification:'Lato Bold'"
         id="tspan31575">Nunc in turpis ac </tspan><tspan
         style="font-weight:bold;font-family:Lato;-inkscape-font-specification:'Lato Bold'"
         id="tspan31577">lacus eleifend </tspan><tspan
         style="font-weight:bold;font-family:Lato;-inkscape-font-specification:'Lato Bold'"
         id="tspan31579">sagittis. Mauris et pede. Nullam libero nunc, tristique eget, laoreet eu, </tspan><tspan
         style="font-weight:bold;font-family:Lato;-inkscape-font-specification:'Lato Bold'"
         id="tspan31581">sagittis id, ante. 
</tspan><tspan
         style="font-weight:bold;font-family:Lato;-inkscape-font-specification:'Lato Bold'"
         id="tspan31583">
</tspan><tspan
         style="font-weight:bold;font-family:Lato;-inkscape-font-specification:'Lato Bold'"
         id="tspan31585">Aenean luctus vulputate </tspan></tspan><tspan
       x="0"
       y="1595.9286"
       id="tspan31601"><tspan
         style="font-weight:bold;font-family:Lato;-inkscape-font-specification:'Lato Bold'"
         id="tspan31589">turpis. Mauris tempus diam. </tspan><tspan
         style="font-weight:bold;font-family:Lato;-inkscape-font-specification:'Lato Bold'"
         id="tspan31591">Suspendisse lectus. </tspan><tspan
         style="font-weight:bold;font-family:Lato;-inkscape-font-specification:'Lato Bold'"
         id="tspan31593">Praesent </tspan><tspan
         style="font-weight:bold;font-family:Lato;-inkscape-font-specification:'Lato Bold'"
         id="tspan31595">semper, neque vel condimentum hendrerit, lectus elit pretiumligula, nec </tspan><tspan
         style="font-weight:bold;font-family:Lato;-inkscape-font-specification:'Lato Bold'"
         id="tspan31597">consequat nisl </tspan><tspan
         style="font-weight:bold;font-family:Lato;-inkscape-font-specification:'Lato Bold'"
         id="tspan31599">velit at dui. Phasellus hendrerit. Etiam cursus purus </tspan></tspan><tspan
       x="0"
       y="1626.4117"
       id="tspan31615"><tspan
         style="font-weight:bold;font-family:Lato;-inkscape-font-specification:'Lato Bold'"
         id="tspan31603">interdum libero. </tspan><tspan
         style="font-weight:bold;font-family:Lato;-inkscape-font-specification:'Lato Bold'"
         id="tspan31605">Donec diam eros, </tspan><tspan
         style="font-weight:bold;font-family:Lato;-inkscape-font-specification:'Lato Bold'"
         id="tspan31607">tristique sit amet, </tspan><tspan
         style="font-weight:bold;font-family:Lato;-inkscape-font-specification:'Lato Bold'"
         id="tspan31609">pretium vel, pellentesque ut, neque. Praesent a lacus vitae turpis </tspan><tspan
         style="font-weight:bold;font-family:Lato;-inkscape-font-specification:'Lato Bold'"
         id="tspan31611">consequat </tspan><tspan
         style="font-weight:bold;font-family:Lato;-inkscape-font-specification:'Lato Bold'"
         id="tspan31613">semper. Quisque aliquam, nulla ac </tspan></tspan><tspan
       x="0"
       y="1656.8947"
       id="tspan31629"><tspan
         style="font-weight:bold;font-family:Lato;-inkscape-font-specification:'Lato Bold'"
         id="tspan31617">scelerisque convallis, nisi ligula </tspan><tspan
         style="font-weight:bold;font-family:Lato;-inkscape-font-specification:'Lato Bold'"
         id="tspan31619">sagittis risus, at </tspan><tspan
         style="font-weight:bold;font-family:Lato;-inkscape-font-specification:'Lato Bold'"
         id="tspan31621">nonummy arcu urna </tspan><tspan
         style="font-weight:bold;font-family:Lato;-inkscape-font-specification:'Lato Bold'"
         id="tspan31623">pulvinar nibh. Quisque aliquam, nulla ac scelerisque convallis, nisi </tspan><tspan
         style="font-weight:bold;font-family:Lato;-inkscape-font-specification:'Lato Bold'"
         id="tspan31625">ligula sagittis </tspan><tspan
         style="font-weight:bold;font-family:Lato;-inkscape-font-specification:'Lato Bold'"
         id="tspan31627">risus, at nonummy arcu urna </tspan></tspan><tspan
       x="0"
       y="1687.3777"
       id="tspan31641"><tspan
         style="font-weight:bold;font-family:Lato;-inkscape-font-specification:'Lato Bold'"
         id="tspan31631">pulvinar nibh. Vestibulum non arcu a ante </tspan><tspan
         style="font-weight:bold;font-family:Lato;-inkscape-font-specification:'Lato Bold'"
         id="tspan31633">feugiat vestibulum. Cras ac enim vel </tspan><tspan
         style="font-weight:bold;font-family:Lato;-inkscape-font-specification:'Lato Bold'"
         id="tspan31635">dui vestibulum suscipit. Sed elementum, felis quis porttitor </tspan><tspan
         style="font-weight:bold;font-family:Lato;-inkscape-font-specification:'Lato Bold'"
         id="tspan31637">sollicitudin, augue nulla </tspan><tspan
         style="font-weight:bold;font-family:Lato;-inkscape-font-specification:'Lato Bold'"
         id="tspan31639">sodales </tspan></tspan><tspan
       x="0"
       y="1717.8608"
       id="tspan31651"><tspan
         style="font-weight:bold;font-family:Lato;-inkscape-font-specification:'Lato Bold'"
         id="tspan31643">sapien, sit amet posuere quam purus </tspan><tspan
         style="font-weight:bold;font-family:Lato;-inkscape-font-specification:'Lato Bold'"
         id="tspan31645">at lacus. Vestibulum non arcu a ante feugiat </tspan><tspan
         style="font-weight:bold;font-family:Lato;-inkscape-font-specification:'Lato Bold'"
         id="tspan31647">vestibulum. Phasellus magna sem, vulputate eget, ornare sed, dignissim sit </tspan><tspan
         style="font-weight:bold;font-family:Lato;-inkscape-font-specification:'Lato Bold'"
         id="tspan31649">amet, pede. Donec tempus quam </tspan></tspan><tspan
       x="0"
       y="1748.3438"
       id="tspan31661"><tspan
         style="font-weight:bold;font-family:Lato;-inkscape-font-specification:'Lato Bold'"
         id="tspan31653">quis neque. Fusce venenatis </tspan><tspan
         style="font-weight:bold;font-family:Lato;-inkscape-font-specification:'Lato Bold'"
         id="tspan31655">ligula in pede. Donec sit amet enim. Phasellus nisi </tspan><tspan
         style="font-weight:bold;font-family:Lato;-inkscape-font-specification:'Lato Bold'"
         id="tspan31657">metus, tempus sit amet, ultrices ac, porta nec, felis. Nam massa turpis, nonummy et, </tspan><tspan
         style="font-weight:bold;font-family:Lato;-inkscape-font-specification:'Lato Bold'"
         id="tspan31659">consectetuer id, placerat ac, ante. Mauris </tspan></tspan><tspan
       x="0"
       y="1778.8268"
       id="tspan31667"><tspan
         dx="0 0 0 0 0 0 0 0 0 0 0 0 0 0 0 0 0 0 0 0 0 0 0 0 0 0 0 0 0 0 0 0 0 0 0 0 0 0 0 0 0 0 0 0 0 0 0 0 0 0 0 0 0 0 0 0 0 0 0 0 0 0 0 0 0 0 0 0 0 0 0 0 0 0 0 0 0 0 0 0 0 0 0 0 0 0 0 0 0 0 0 0 0 0 0 0 0 0 0 0 0 0 0 0 0 0 0 0 0 0 -0.00010681152"
         style="font-weight:bold;font-family:Lato;-inkscape-font-specification:'Lato Bold'"
         id="tspan31663">tempor ultrices justo. Aenean ligula. Aenean luctus vulputate turpis. Pellentesque convallis dolor vel libero. Cras facilisis felis sit amet lorem. Praesent a eros. Sed a </tspan><tspan
         style="font-weight:bold;font-family:Lato;-inkscape-font-specification:'Lato Bold'"
         id="tspan31665">lorem ut est tincidunt consectetuer. Donec nonummy </tspan></tspan><tspan
       x="0"
       y="1809.3099"
       id="tspan31673"><tspan
         style="font-weight:bold;font-family:Lato;-inkscape-font-specification:'Lato Bold'"
         id="tspan31669">lacinia leo. </tspan><tspan
         dx="0 0 0 0 0 0 0 0 0 0 0 0 0 0 0 0 0 0 0 0 0 0 0 0 0 0 0 0 0 0 0 0 0 0 0 0 0 0 0 0 0 0 0 0 0 0 0 0 0 0 0 0 0 0 0 0 0 0 0 0 0 0 0 0 0 0 0 0 0 0 0 0 0 0 0 0 0 0 0 0 0 0 0 0 0 0 0 0 0 0 0 0 0 0 0 0 0 0 0 0 0 0 0 0 0 0 0 0 0 0 0 0 0 0 0 0 0 0 0 0 0 0 0 0 0 0 0 0 0 0 0 0 0 0 -0.00012207031 0 0 0 0 0 0 0 0.00010681152"
         style="font-weight:bold;font-family:Lato;-inkscape-font-specification:'Lato Bold'"
         id="tspan31671">Phasellus magna sem, vulputate eget, ornare sed, dignissim sit amet, pede. Integer porta. Nam nisl quam, posuere non, volutpat sed, semper vitae, magna. 
</tspan></tspan><tspan
       x="0"
       y="1839.7929"
       id="tspan31681"><tspan
         style="font-weight:bold;font-family:Lato;-inkscape-font-specification:'Lato Bold'"
         id="tspan31675">
</tspan><tspan
         dx="0 0 0 0 0 0 0 0 0 0 0 0 0 0 0 0 0 0 0 0 0 0 0 0 0 0 0 0 0 0 0 0 0 0 0 0 0 0 0 0 0 0 0 0 0 0 0 0 0 0 0 0 0 0 0 0 0 0 0 0 0 0 0 0 0 0 0 0 0 0 0 0 0 0 0 0 0 0 0 0 0 0 0 0 0 0 0 0 0 0 0 0 0 0 0 0 0 0 0 0 0 0 0 0 0 0 0 0.00010681152 0 0 0 0 0 0 0 0 0 0 0 0 0 -0.00010681152 0 0 0 0 0 0 0 0 0 0 0 0 0 -0.00012207031 0.00010681152 0 0 0 0 0 0 0 0 0 0 0 0 0 0 0 0 0 0 0 0 0 0 0 0 0 0 0 0 0 0 0 0.00012207031"
         style="font-weight:bold;font-family:Lato;-inkscape-font-specification:'Lato Bold'"
         id="tspan31677">Aliquam sed erat. Lorem ipsum dolor sit amet, consectetuer adipiscing elit. Nunc metus. Donec interdum vestibulum libero. Donec sit amet enim. Nam pharetra. Suspendisse </tspan><tspan
         style="font-weight:bold;font-family:Lato;-inkscape-font-specification:'Lato Bold'"
         id="tspan31679">potenti. Phasellus </tspan></tspan><tspan
       x="0"
       y="1870.2759"
       id="tspan31691"><tspan
         style="font-weight:bold;font-family:Lato;-inkscape-font-specification:'Lato Bold'"
         id="tspan31683">hendrerit. Nam </tspan><tspan
         style="font-weight:bold;font-family:Lato;-inkscape-font-specification:'Lato Bold'"
         id="tspan31685">pharetra. Vestibulum ante ipsum primis in faucibus </tspan><tspan
         style="font-weight:bold;font-family:Lato;-inkscape-font-specification:'Lato Bold'"
         id="tspan31687">orci luctus et ultrices posuere cubilia Curae; Vivamus eu orci. Vivamus feugiat. Maecenas rhoncus rhoncus ipsum. </tspan><tspan
         style="font-weight:bold;font-family:Lato;-inkscape-font-specification:'Lato Bold'"
         id="tspan31689">Praesent </tspan></tspan><tspan
       x="0"
       y="1900.759"
       id="tspan31703"><tspan
         style="font-weight:bold;font-family:Lato;-inkscape-font-specification:'Lato Bold'"
         id="tspan31693">semper, neque </tspan><tspan
         style="font-weight:bold;font-family:Lato;-inkscape-font-specification:'Lato Bold'"
         id="tspan31695">vel condimentum hendrerit, lectus elit </tspan><tspan
         style="font-weight:bold;font-family:Lato;-inkscape-font-specification:'Lato Bold'"
         id="tspan31697">pretiumligula, nec consequat nisl velit at dui. Mauris et pede. </tspan><tspan
         style="font-weight:bold;font-family:Lato;-inkscape-font-specification:'Lato Bold'"
         id="tspan31699">Mauris et pede. 
</tspan><tspan
         style="font-weight:bold;font-family:Lato;-inkscape-font-specification:'Lato Bold'"
         id="tspan31701">
</tspan></tspan><tspan
       x="0"
       y="1931.242"
       id="tspan31717"><tspan
         style="font-weight:bold;font-family:Lato;-inkscape-font-specification:'Lato Bold'"
         id="tspan31705">Aenean justo </tspan><tspan
         style="font-weight:bold;font-family:Lato;-inkscape-font-specification:'Lato Bold'"
         id="tspan31707">ipsum, luctus </tspan><tspan
         style="font-weight:bold;font-family:Lato;-inkscape-font-specification:'Lato Bold'"
         id="tspan31709">ut, volutpat laoreet, vehicula </tspan><tspan
         style="font-weight:bold;font-family:Lato;-inkscape-font-specification:'Lato Bold'"
         id="tspan31711">in, libero. Integer porta. Donec tempus quam quis neque. Proin </tspan><tspan
         style="font-weight:bold;font-family:Lato;-inkscape-font-specification:'Lato Bold'"
         id="tspan31713">lectus orci, venenatis pharetra, egestas id, </tspan><tspan
         style="font-weight:bold;font-family:Lato;-inkscape-font-specification:'Lato Bold'"
         id="tspan31715">tincidunt vel, </tspan></tspan><tspan
       x="0"
       y="1961.725"
       id="tspan31731"><tspan
         style="font-weight:bold;font-family:Lato;-inkscape-font-specification:'Lato Bold'"
         id="tspan31719">eros. In consectetuer, lorem eu lobortis </tspan><tspan
         style="font-weight:bold;font-family:Lato;-inkscape-font-specification:'Lato Bold'"
         id="tspan31721">egestas, velit </tspan><tspan
         style="font-weight:bold;font-family:Lato;-inkscape-font-specification:'Lato Bold'"
         id="tspan31723">odio imperdiet eros, sit amet sagittis nunc mi ac neque. Curabitur </tspan><tspan
         style="font-weight:bold;font-family:Lato;-inkscape-font-specification:'Lato Bold'"
         id="tspan31725">tincidunt tellus nec purus. </tspan><tspan
         style="font-weight:bold;font-family:Lato;-inkscape-font-specification:'Lato Bold'"
         id="tspan31727">Aliquam vel </tspan><tspan
         style="font-weight:bold;font-family:Lato;-inkscape-font-specification:'Lato Bold'"
         id="tspan31729">nibh. </tspan></tspan><tspan
       x="0"
       y="1992.2081"
       id="tspan31745"><tspan
         style="font-weight:bold;font-family:Lato;-inkscape-font-specification:'Lato Bold'"
         id="tspan31733">Vestibulum viverra varius enim. Aliquam </tspan><tspan
         style="font-weight:bold;font-family:Lato;-inkscape-font-specification:'Lato Bold'"
         id="tspan31735">velit dui, commodo </tspan><tspan
         style="font-weight:bold;font-family:Lato;-inkscape-font-specification:'Lato Bold'"
         id="tspan31737">quis, porttitor eget, convallis </tspan><tspan
         style="font-weight:bold;font-family:Lato;-inkscape-font-specification:'Lato Bold'"
         id="tspan31739">et, nisi. Nam laoreet dui sed magna. Maecenas rhoncus </tspan><tspan
         style="font-weight:bold;font-family:Lato;-inkscape-font-specification:'Lato Bold'"
         id="tspan31741">rhoncus ipsum. </tspan><tspan
         style="font-weight:bold;font-family:Lato;-inkscape-font-specification:'Lato Bold'"
         id="tspan31743">Quisque aliquam, nulla ac scelerisque </tspan></tspan><tspan
       x="0"
       y="2022.6911"
       id="tspan31757"><tspan
         style="font-weight:bold;font-family:Lato;-inkscape-font-specification:'Lato Bold'"
         id="tspan31747">convallis, nisi ligula sagittis risus, at nonummy arcu urna </tspan><tspan
         style="font-weight:bold;font-family:Lato;-inkscape-font-specification:'Lato Bold'"
         id="tspan31749">pulvinar nibh. Fusce consectetuer tellus ut nisl. Quisque </tspan><tspan
         style="font-weight:bold;font-family:Lato;-inkscape-font-specification:'Lato Bold'"
         id="tspan31751">arcu ante, cursus in, ornare quis, viverra ut, justo. Sed </tspan><tspan
         style="font-weight:bold;font-family:Lato;-inkscape-font-specification:'Lato Bold'"
         id="tspan31753">elementum, felis </tspan><tspan
         style="font-weight:bold;font-family:Lato;-inkscape-font-specification:'Lato Bold'"
         id="tspan31755">quis porttitor sollicitudin, augue nulla </tspan></tspan><tspan
       x="0"
       y="2053.1741"
       id="tspan31769"><tspan
         style="font-weight:bold;font-family:Lato;-inkscape-font-specification:'Lato Bold'"
         id="tspan31759">sodales sapien, </tspan><tspan
         dx="0 0 0 0 0 0 0 0 0 0 0 0 0 0 0 0 0 0 0 0 0 0 0 0 0 0 0 0 0 0 0 0 0 0 0 0 0 0 0 0 0 0 0 0 0 0 0 0 0 0 0 0 0 0 0 0 0 0 0 0 0 0 0 0 0 0 0 0 0 0 0 0 0 0 0 0 0 0 0 0 0 0 0 0 0 0 0 0 0 0 0 0 0 0 0 0 0 0 0.00010681152 0 0 0 0 0 0 0 0 0 0 0 0 0 0 -0.00010681152"
         style="font-weight:bold;font-family:Lato;-inkscape-font-specification:'Lato Bold'"
         id="tspan31761">sit amet posuere quam purus at lacus. Aenean ultrices turpis. Suspendisse venenatis. Nulla blandit justo a metus. </tspan><tspan
         style="font-weight:bold;font-family:Lato;-inkscape-font-specification:'Lato Bold'"
         id="tspan31763">Curabitur accumsan </tspan><tspan
         style="font-weight:bold;font-family:Lato;-inkscape-font-specification:'Lato Bold'"
         id="tspan31765">felis in erat. Mauris tempus diam. Aliquam justo lectus, </tspan><tspan
         style="font-weight:bold;font-family:Lato;-inkscape-font-specification:'Lato Bold'"
         id="tspan31767">iaculis a, auctor sed, congue in, nisl. Suspendisse lectus. </tspan></tspan><tspan
       x="0"
       y="2083.6572"
       id="tspan31783"><tspan
         style="font-weight:bold;font-family:Lato;-inkscape-font-specification:'Lato Bold'"
         id="tspan31771">Aliquam </tspan><tspan
         style="font-weight:bold;font-family:Lato;-inkscape-font-specification:'Lato Bold'"
         id="tspan31773">velit dui, commodo quis, porttitor eget, convallis et, nisi. Donec rutrum venenatis dui. Nullam libero nunc, </tspan><tspan
         style="font-weight:bold;font-family:Lato;-inkscape-font-specification:'Lato Bold'"
         id="tspan31775">tristique eget, laoreet </tspan><tspan
         style="font-weight:bold;font-family:Lato;-inkscape-font-specification:'Lato Bold'"
         id="tspan31777">eu, sagittis id, ante. Mauris et dolor. Nulla sed lacus. 
</tspan><tspan
         style="font-weight:bold;font-family:Lato;-inkscape-font-specification:'Lato Bold'"
         id="tspan31779">
</tspan><tspan
         style="font-weight:bold;font-family:Lato;-inkscape-font-specification:'Lato Bold'"
         id="tspan31781">Vestibulum non </tspan></tspan><tspan
       x="0"
       y="2114.1401"
       id="tspan31795"><tspan
         style="font-weight:bold;font-family:Lato;-inkscape-font-specification:'Lato Bold'"
         id="tspan31785">arcu a ante </tspan><tspan
         style="font-weight:bold;font-family:Lato;-inkscape-font-specification:'Lato Bold'"
         id="tspan31787">feugiat vestibulum. Nam malesuada sapien eu nibh. Fusce venenatis ligula in pede. Phasellus </tspan><tspan
         style="font-weight:bold;font-family:Lato;-inkscape-font-specification:'Lato Bold'"
         id="tspan31789">hendrerit. Maecenas </tspan><tspan
         style="font-weight:bold;font-family:Lato;-inkscape-font-specification:'Lato Bold'"
         id="tspan31791">justo. Pellentesque convallis dolor vel libero. In consectetuer, lorem eu lobortis egestas, velit odio imperdiet </tspan><tspan
         style="font-weight:bold;font-family:Lato;-inkscape-font-specification:'Lato Bold'"
         id="tspan31793">eros, sit </tspan></tspan><tspan
       x="0"
       y="2144.623"
       id="tspan31811"><tspan
         style="font-weight:bold;font-family:Lato;-inkscape-font-specification:'Lato Bold'"
         id="tspan31797">amet sagittis </tspan><tspan
         style="font-weight:bold;font-family:Lato;-inkscape-font-specification:'Lato Bold'"
         id="tspan31799">nunc mi ac </tspan><tspan
         style="font-weight:bold;font-family:Lato;-inkscape-font-specification:'Lato Bold'"
         id="tspan31801">neque. Pellentesque tempor. </tspan><tspan
         style="font-weight:bold;font-family:Lato;-inkscape-font-specification:'Lato Bold'"
         id="tspan31803">Aenean luctus vulputate </tspan><tspan
         style="font-weight:bold;font-family:Lato;-inkscape-font-specification:'Lato Bold'"
         id="tspan31805">turpis. Etiam </tspan><tspan
         style="font-weight:bold;font-family:Lato;-inkscape-font-specification:'Lato Bold'"
         id="tspan31807">pharetra lacus sed velit imperdiet bibendum. Nullam libero nunc, tristique eget, laoreet eu, </tspan><tspan
         style="font-weight:bold;font-family:Lato;-inkscape-font-specification:'Lato Bold'"
         id="tspan31809">sagittis id, </tspan></tspan><tspan
       x="0"
       y="2175.1059"
       id="tspan31823"><tspan
         style="font-weight:bold;font-family:Lato;-inkscape-font-specification:'Lato Bold'"
         id="tspan31813">ante. Mauris </tspan><tspan
         style="font-weight:bold;font-family:Lato;-inkscape-font-specification:'Lato Bold'"
         id="tspan31815">sed nulla </tspan><tspan
         style="font-weight:bold;font-family:Lato;-inkscape-font-specification:'Lato Bold'"
         id="tspan31817">quis nisi interdum </tspan><tspan
         style="font-weight:bold;font-family:Lato;-inkscape-font-specification:'Lato Bold'"
         id="tspan31819">tempor. Proin dolor sapien, adipiscing id, sagittis eu, molestie viverra, mauris. Mauris </tspan><tspan
         style="font-weight:bold;font-family:Lato;-inkscape-font-specification:'Lato Bold'"
         id="tspan31821">urna sem, </tspan></tspan><tspan
       x="0"
       y="2205.5888"
       id="tspan31835"><tspan
         style="font-weight:bold;font-family:Lato;-inkscape-font-specification:'Lato Bold'"
         id="tspan31825">suscipit </tspan><tspan
         style="font-weight:bold;font-family:Lato;-inkscape-font-specification:'Lato Bold'"
         id="tspan31827">vitae, </tspan><tspan
         style="font-weight:bold;font-family:Lato;-inkscape-font-specification:'Lato Bold'"
         id="tspan31829">dignissim id, </tspan><tspan
         style="font-weight:bold;font-family:Lato;-inkscape-font-specification:'Lato Bold'"
         id="tspan31831">ultrices sed, nunc. </tspan><tspan
         style="font-weight:bold;font-family:Lato;-inkscape-font-specification:'Lato Bold'"
         id="tspan31833">Suspendisse </tspan></tspan><tspan
       x="0"
       y="2236.0717"
       id="tspan31849"><tspan
         style="font-weight:bold;font-family:Lato;-inkscape-font-specification:'Lato Bold'"
         id="tspan31837">potenti. 
</tspan><tspan
         style="font-weight:bold;font-family:Lato;-inkscape-font-specification:'Lato Bold'"
         id="tspan31839">
</tspan><tspan
         style="font-weight:bold;font-family:Lato;-inkscape-font-specification:'Lato Bold'"
         id="tspan31841">Donec ut urna. </tspan><tspan
         style="font-weight:bold;font-family:Lato;-inkscape-font-specification:'Lato Bold'"
         id="tspan31843">Aenean ultrices turpis. </tspan><tspan
         style="font-weight:bold;font-family:Lato;-inkscape-font-specification:'Lato Bold'"
         id="tspan31845">Praesent a </tspan><tspan
         style="font-weight:bold;font-family:Lato;-inkscape-font-specification:'Lato Bold'"
         id="tspan31847">eros. </tspan></tspan><tspan
       x="0"
       y="2266.5546"
       id="tspan31861"><tspan
         style="font-weight:bold;font-family:Lato;-inkscape-font-specification:'Lato Bold'"
         id="tspan31851">Vestibulum </tspan><tspan
         style="font-weight:bold;font-family:Lato;-inkscape-font-specification:'Lato Bold'"
         id="tspan31853">non arcu a </tspan><tspan
         style="font-weight:bold;font-family:Lato;-inkscape-font-specification:'Lato Bold'"
         id="tspan31855">ante feugiat </tspan><tspan
         style="font-weight:bold;font-family:Lato;-inkscape-font-specification:'Lato Bold'"
         id="tspan31857">vestibulum. </tspan><tspan
         style="font-weight:bold;font-family:Lato;-inkscape-font-specification:'Lato Bold'"
         id="tspan31859">Pellentesqu</tspan></tspan><tspan
       x="0"
       y="2297.0375"
       id="tspan31875"><tspan
         style="font-weight:bold;font-family:Lato;-inkscape-font-specification:'Lato Bold'"
         id="tspan31863">e viverra </tspan><tspan
         style="font-weight:bold;font-family:Lato;-inkscape-font-specification:'Lato Bold'"
         id="tspan31865">dolor non </tspan><tspan
         style="font-weight:bold;font-family:Lato;-inkscape-font-specification:'Lato Bold'"
         id="tspan31867">nunc. Aenean </tspan><tspan
         style="font-weight:bold;font-family:Lato;-inkscape-font-specification:'Lato Bold'"
         id="tspan31869">turpis ipsum, rhoncus </tspan><tspan
         style="font-weight:bold;font-family:Lato;-inkscape-font-specification:'Lato Bold'"
         id="tspan31871">vitae, </tspan><tspan
         style="font-weight:bold;font-family:Lato;-inkscape-font-specification:'Lato Bold'"
         id="tspan31873">posuere </tspan></tspan><tspan
       x="0"
       y="2327.5204"
       id="tspan31891"><tspan
         style="font-weight:bold;font-family:Lato;-inkscape-font-specification:'Lato Bold'"
         id="tspan31877">vitae, </tspan><tspan
         style="font-weight:bold;font-family:Lato;-inkscape-font-specification:'Lato Bold'"
         id="tspan31879">euismod </tspan><tspan
         style="font-weight:bold;font-family:Lato;-inkscape-font-specification:'Lato Bold'"
         id="tspan31881">sed, </tspan><tspan
         style="font-weight:bold;font-family:Lato;-inkscape-font-specification:'Lato Bold'"
         id="tspan31883">ligula. Integer </tspan><tspan
         style="font-weight:bold;font-family:Lato;-inkscape-font-specification:'Lato Bold'"
         id="tspan31885">porta. Praesent </tspan><tspan
         style="font-weight:bold;font-family:Lato;-inkscape-font-specification:'Lato Bold'"
         id="tspan31887">aliquet, </tspan><tspan
         style="font-weight:bold;font-family:Lato;-inkscape-font-specification:'Lato Bold'"
         id="tspan31889">neque </tspan></tspan><tspan
       x="0"
       y="2358.0033"
       id="tspan31907"><tspan
         style="font-weight:bold;font-family:Lato;-inkscape-font-specification:'Lato Bold'"
         id="tspan31893">pretium congue </tspan><tspan
         style="font-weight:bold;font-family:Lato;-inkscape-font-specification:'Lato Bold'"
         id="tspan31895">mattis, </tspan><tspan
         style="font-weight:bold;font-family:Lato;-inkscape-font-specification:'Lato Bold'"
         id="tspan31897">ipsum </tspan><tspan
         style="font-weight:bold;font-family:Lato;-inkscape-font-specification:'Lato Bold'"
         id="tspan31899">augue dignissim </tspan><tspan
         style="font-weight:bold;font-family:Lato;-inkscape-font-specification:'Lato Bold'"
         id="tspan31901">ante, ac pretium nisl </tspan><tspan
         style="font-weight:bold;font-family:Lato;-inkscape-font-specification:'Lato Bold'"
         id="tspan31903">lectus at </tspan><tspan
         style="font-weight:bold;font-family:Lato;-inkscape-font-specification:'Lato Bold'"
         id="tspan31905">magna. </tspan></tspan><tspan
       x="0"
       y="2388.4863"
       id="tspan31919"><tspan
         style="font-weight:bold;font-family:Lato;-inkscape-font-specification:'Lato Bold'"
         id="tspan31909">Pellentesque </tspan><tspan
         style="font-weight:bold;font-family:Lato;-inkscape-font-specification:'Lato Bold'"
         id="tspan31911">condimentum </tspan><tspan
         style="font-weight:bold;font-family:Lato;-inkscape-font-specification:'Lato Bold'"
         id="tspan31913">felis a sem. Nam </tspan><tspan
         style="font-weight:bold;font-family:Lato;-inkscape-font-specification:'Lato Bold'"
         id="tspan31915">malesuada </tspan><tspan
         style="font-weight:bold;font-family:Lato;-inkscape-font-specification:'Lato Bold'"
         id="tspan31917">sapien eu nibh. </tspan></tspan><tspan
       x="0"
       y="2418.9692"
       id="tspan31935"><tspan
         style="font-weight:bold;font-family:Lato;-inkscape-font-specification:'Lato Bold'"
         id="tspan31921">Suspendisse potenti. Fusce </tspan><tspan
         style="font-weight:bold;font-family:Lato;-inkscape-font-specification:'Lato Bold'"
         id="tspan31923">nonummy </tspan><tspan
         style="font-weight:bold;font-family:Lato;-inkscape-font-specification:'Lato Bold'"
         id="tspan31925">commodo dui. Nulla sed </tspan><tspan
         style="font-weight:bold;font-family:Lato;-inkscape-font-specification:'Lato Bold'"
         id="tspan31927">lacus. </tspan><tspan
         style="font-weight:bold;font-family:Lato;-inkscape-font-specification:'Lato Bold'"
         id="tspan31929">Praesent </tspan><tspan
         style="font-weight:bold;font-family:Lato;-inkscape-font-specification:'Lato Bold'"
         id="tspan31931">a lacus vitae </tspan><tspan
         style="font-weight:bold;font-family:Lato;-inkscape-font-specification:'Lato Bold'"
         id="tspan31933">turpis </tspan></tspan><tspan
       x="0"
       y="2449.4521"
       id="tspan31953"><tspan
         style="font-weight:bold;font-family:Lato;-inkscape-font-specification:'Lato Bold'"
         id="tspan31937">consequat semper. </tspan><tspan
         style="font-weight:bold;font-family:Lato;-inkscape-font-specification:'Lato Bold'"
         id="tspan31939">Nunc </tspan><tspan
         style="font-weight:bold;font-family:Lato;-inkscape-font-specification:'Lato Bold'"
         id="tspan31941">metus. </tspan><tspan
         style="font-weight:bold;font-family:Lato;-inkscape-font-specification:'Lato Bold'"
         id="tspan31943">Quisque arcu </tspan><tspan
         style="font-weight:bold;font-family:Lato;-inkscape-font-specification:'Lato Bold'"
         id="tspan31945">ante, cursus in, </tspan><tspan
         style="font-weight:bold;font-family:Lato;-inkscape-font-specification:'Lato Bold'"
         id="tspan31947">ornare quis, viverra ut, </tspan><tspan
         style="font-weight:bold;font-family:Lato;-inkscape-font-specification:'Lato Bold'"
         id="tspan31949">justo. </tspan><tspan
         style="font-weight:bold;font-family:Lato;-inkscape-font-specification:'Lato Bold'"
         id="tspan31951">Curabitur risus urna, </tspan></tspan><tspan
       x="0"
       y="2479.935"
       id="tspan31971"><tspan
         style="font-weight:bold;font-family:Lato;-inkscape-font-specification:'Lato Bold'"
         id="tspan31955">placerat </tspan><tspan
         style="font-weight:bold;font-family:Lato;-inkscape-font-specification:'Lato Bold'"
         id="tspan31957">et, luctus pulvinar, </tspan><tspan
         style="font-weight:bold;font-family:Lato;-inkscape-font-specification:'Lato Bold'"
         id="tspan31959">auctor vel, orci. Phasellus </tspan><tspan
         style="font-weight:bold;font-family:Lato;-inkscape-font-specification:'Lato Bold'"
         id="tspan31961">at purus sed purus </tspan><tspan
         style="font-weight:bold;font-family:Lato;-inkscape-font-specification:'Lato Bold'"
         id="tspan31963">cursus iaculis. Curabitur </tspan><tspan
         style="font-weight:bold;font-family:Lato;-inkscape-font-specification:'Lato Bold'"
         id="tspan31965">tincidunt </tspan><tspan
         style="font-weight:bold;font-family:Lato;-inkscape-font-specification:'Lato Bold'"
         id="tspan31967">tellus </tspan><tspan
         style="font-weight:bold;font-family:Lato;-inkscape-font-specification:'Lato Bold'"
         id="tspan31969">nec purus. Quisque </tspan></tspan><tspan
       x="0"
       y="2510.4179"
       id="tspan31981"><tspan
         style="font-weight:bold;font-family:Lato;-inkscape-font-specification:'Lato Bold'"
         id="tspan31973">pretium </tspan><tspan
         style="font-weight:bold;font-family:Lato;-inkscape-font-specification:'Lato Bold'"
         id="tspan31975">rutrum ligula. Pellentesque condimentum felis a sem. Lorem </tspan><tspan
         style="font-weight:bold;font-family:Lato;-inkscape-font-specification:'Lato Bold'"
         id="tspan31977">ipsum dolor sit amet, </tspan><tspan
         style="font-weight:bold;font-family:Lato;-inkscape-font-specification:'Lato Bold'"
         id="tspan31979">consectetuer </tspan></tspan><tspan
       x="0"
       y="2540.9008"
       id="tspan31989"><tspan
         style="font-weight:bold;font-family:Lato;-inkscape-font-specification:'Lato Bold'"
         id="tspan31983">adipiscing elit. Class aptent taciti sociosqu ad litora torquent per </tspan><tspan
         style="font-weight:bold;font-family:Lato;-inkscape-font-specification:'Lato Bold'"
         id="tspan31985">conubia nostra, per </tspan><tspan
         style="font-weight:bold;font-family:Lato;-inkscape-font-specification:'Lato Bold'"
         id="tspan31987">inceptos </tspan></tspan><tspan
       x="0"
       y="2571.3837"
       id="tspan31995"><tspan
         style="font-weight:bold;font-family:Lato;-inkscape-font-specification:'Lato Bold'"
         id="tspan31991">hymenaeos. Suspendisse molestie sem. Pellentesque viverra dolor </tspan><tspan
         style="font-weight:bold;font-family:Lato;-inkscape-font-specification:'Lato Bold'"
         id="tspan31993">non nunc. Quisque </tspan></tspan><tspan
       x="0"
       y="2601.8666"
       id="tspan32003"><tspan
         style="font-weight:bold;font-family:Lato;-inkscape-font-specification:'Lato Bold'"
         id="tspan31997">facilisis, urna sit </tspan><tspan
         style="font-weight:bold;font-family:Lato;-inkscape-font-specification:'Lato Bold'"
         id="tspan31999">amet pulvinar mollis, purus arcu </tspan><tspan
         style="font-weight:bold;font-family:Lato;-inkscape-font-specification:'Lato Bold'"
         id="tspan32001">adipiscing velit, non </tspan></tspan><tspan
       x="0"
       y="2632.3495"
       id="tspan32011"><tspan
         style="font-weight:bold;font-family:Lato;-inkscape-font-specification:'Lato Bold'"
         id="tspan32005">condimentum </tspan><tspan
         style="font-weight:bold;font-family:Lato;-inkscape-font-specification:'Lato Bold'"
         id="tspan32007">diam purus eu massa. </tspan><tspan
         style="font-weight:bold;font-family:Lato;-inkscape-font-specification:'Lato Bold'"
         id="tspan32009">Curabitur nunc </tspan></tspan><tspan
       x="0"
       y="2662.8325"
       id="tspan32017"><tspan
         style="font-weight:bold;font-family:Lato;-inkscape-font-specification:'Lato Bold'"
         id="tspan32013">ante, </tspan><tspan
         style="font-weight:bold;font-family:Lato;-inkscape-font-specification:'Lato Bold'"
         id="tspan32015">ullamcorper </tspan></tspan><tspan
       x="0"
       y="2693.3154"
       id="tspan32025"><tspan
         style="font-weight:bold;font-family:Lato;-inkscape-font-specification:'Lato Bold'"
         id="tspan32019">vel, auctor a, </tspan><tspan
         style="font-weight:bold;font-family:Lato;-inkscape-font-specification:'Lato Bold'"
         id="tspan32021">aliquam at, </tspan><tspan
         style="font-weight:bold;font-family:Lato;-inkscape-font-specification:'Lato Bold'"
         id="tspan32023">tortor. Morbi </tspan></tspan><tspan
       x="0"
       y="2723.7983"
       id="tspan32031"><tspan
         style="font-weight:bold;font-family:Lato;-inkscape-font-specification:'Lato Bold'"
         id="tspan32027">pulvinar nulla sit amet nisl. Curabitur accumsan felis </tspan><tspan
         style="font-weight:bold;font-family:Lato;-inkscape-font-specification:'Lato Bold'"
         id="tspan32029">in erat. 
</tspan></tspan><tspan
       x="0"
       y="2754.2812"
       id="tspan32037"><tspan
         style="font-weight:bold;font-family:Lato;-inkscape-font-specification:'Lato Bold'"
         id="tspan32033">
</tspan><tspan
         style="font-weight:bold;font-family:Lato;-inkscape-font-specification:'Lato Bold'"
         id="tspan32035">Mauris </tspan></tspan><tspan
       x="0"
       y="2784.7641"
       id="tspan32045"><tspan
         style="font-weight:bold;font-family:Lato;-inkscape-font-specification:'Lato Bold'"
         id="tspan32039">tempor </tspan><tspan
         style="font-weight:bold;font-family:Lato;-inkscape-font-specification:'Lato Bold'"
         id="tspan32041">ultrices justo. Etiam pharetra </tspan><tspan
         style="font-weight:bold;font-family:Lato;-inkscape-font-specification:'Lato Bold'"
         id="tspan32043">lacus sed velit </tspan></tspan><tspan
       x="0"
       y="2815.247"
       id="tspan32051"><tspan
         style="font-weight:bold;font-family:Lato;-inkscape-font-specification:'Lato Bold'"
         id="tspan32047">imperdiet </tspan><tspan
         style="font-weight:bold;font-family:Lato;-inkscape-font-specification:'Lato Bold'"
         id="tspan32049">bibendum. </tspan></tspan><tspan
       x="0"
       y="2845.7299"
       id="tspan32057"><tspan
         style="font-weight:bold;font-family:Lato;-inkscape-font-specification:'Lato Bold'"
         id="tspan32053">Aenean </tspan><tspan
         style="font-weight:bold;font-family:Lato;-inkscape-font-specification:'Lato Bold'"
         id="tspan32055">luctus vulputate </tspan></tspan><tspan
       x="0"
       y="2876.2128"
       id="tspan32063"><tspan
         style="font-weight:bold;font-family:Lato;-inkscape-font-specification:'Lato Bold'"
         id="tspan32059">turpis. Vivamus </tspan><tspan
         style="font-weight:bold;font-family:Lato;-inkscape-font-specification:'Lato Bold'"
         id="tspan32061">nisi elit, nonummy id, facilisis non, blandit ac, </tspan></tspan><tspan
       x="0"
       y="2906.6957"
       id="tspan32069"><tspan
         style="font-weight:bold;font-family:Lato;-inkscape-font-specification:'Lato Bold'"
         id="tspan32065">dolor. </tspan><tspan
         style="font-weight:bold;font-family:Lato;-inkscape-font-specification:'Lato Bold'"
         id="tspan32067">Integer accumsan. Sed a lorem ut est tincidunt </tspan></tspan><tspan
       x="0"
       y="2937.1786"
       id="tspan32073"><tspan
         style="font-weight:bold;font-family:Lato;-inkscape-font-specification:'Lato Bold'"
         id="tspan32071">consectetuer. Vestibulum viverra varius enim. </tspan></tspan><tspan
       x="0"
       y="2967.6616"
       id="tspan32077"><tspan
         style="font-weight:bold;font-family:Lato;-inkscape-font-specification:'Lato Bold'"
         id="tspan32075">Nulla sagittis condimentum ligula. Nam </tspan></tspan><tspan
       x="0"
       y="2998.1445"
       id="tspan32081"><tspan
         style="font-weight:bold;font-family:Lato;-inkscape-font-specification:'Lato Bold'"
         id="tspan32079">consectetuer </tspan></tspan><tspan
       x="0"
       y="3028.6274"
       id="tspan32085"><tspan
         style="font-weight:bold;font-family:Lato;-inkscape-font-specification:'Lato Bold'"
         id="tspan32083">mollis </tspan></tspan><tspan
       x="0"
       y="3059.1103"
       id="tspan32089"><tspan
         style="font-weight:bold;font-family:Lato;-inkscape-font-specification:'Lato Bold'"
         id="tspan32087">dolor. </tspan></tspan><tspan
       x="0"
       y="3089.5932"
       id="tspan32093"><tspan
         style="font-weight:bold;font-family:Lato;-inkscape-font-specification:'Lato Bold'"
         id="tspan32091">Aliquam </tspan></tspan><tspan
       x="0"
       y="3120.0761"
       id="tspan32097"><tspan
         style="font-weight:bold;font-family:Lato;-inkscape-font-specification:'Lato Bold'"
         id="tspan32095">vel nibh. </tspan></tspan><tspan
       x="0"
       y="3150.559"
       id="tspan32101"><tspan
         style="font-weight:bold;font-family:Lato;-inkscape-font-specification:'Lato Bold'"
         id="tspan32099">Donec sit </tspan></tspan><tspan
       x="0"
       y="3181.0419"
       id="tspan32105"><tspan
         style="font-weight:bold;font-family:Lato;-inkscape-font-specification:'Lato Bold'"
         id="tspan32103">amet enim. </tspan></tspan><tspan
       x="0"
       y="3211.5248"
       id="tspan32109"><tspan
         style="font-weight:bold;font-family:Lato;-inkscape-font-specification:'Lato Bold'"
         id="tspan32107">Morbi urna. </tspan></tspan><tspan
       x="0"
       y="3242.0077"
       id="tspan32113"><tspan
         style="font-weight:bold;font-family:Lato;-inkscape-font-specification:'Lato Bold'"
         id="tspan32111">Etiam </tspan></tspan><tspan
       x="0"
       y="3443.652"
       id="tspan32117"><tspan
         dx="0 13.572006 13.644012 12.564011 9.8040161 12.828003 9.2879791 9.4560242 12.564011 4.632019 6.5039978 12.564011 11.447983 13.644012 10.488007 4.632019 10.488007 12.828003 13.679993 4.632019 12.408005 12.828003 6.5039978 6.5039978 9.2879791 4.632019 6.5039978 20.207977 13.572021 12.828003 9.8040161 13.679993 6.5039673 12.828003 9.2879944 4.632019 13.679993 6.5039978 13.679993 12.828003 13.644012 13.679993 13.644012 20.207977 5.3999939 4.632019 14.640015 12.828003 6.5040283 6.5039673 12.828003 13.644043 9.2879639 12.828003 10.487976 13.680054 13.643982 12.828003 4.632019 10.488037 13.643982 10.487976 11.447998 6.5040283 13.572021 6.5039673 9.2879639 4.632019 12.564026 11.447998 11.447937 13.644043 20.208008 10.487976 12.564026 13.643982 4.632019 20.208008 12.563965 10.488037 10.488037 12.563965 5.4000244 4.632019 18.143982 12.564026 20.208008 4.632019 11.447998 13.643982 13.643982 10.488037 12.828003 11.447998 9.2879639 12.828003 9.2879639 13.644043 12.828003 9.8039551 4.6320801 20.208008 13.643921 6.5040283 6.5040283 6.5040283 10.487915 4.6320801 13.679932 13.644043 6.5040283 13.644043 8.1719971 5.3999023 4.6320801 17.939941 13.644043 13.644043 12.828003 11.447998 4.631958 6.5040283 13.644043 9.2879639 12.828003 9.8039551 13.680054 13.644043 20.207886 4.6320801 12.407959 12.828003 10.488037 9.2879639 6.5040283 13.679932 13.644043 6.5040283 13.644043 20.207886 4.6320801 6.5040283 6.5039062 13.680054 12.828003 9.8039551 13.644043 5.4000244 4.6320801 12.875977 12.828003 13.679932 4.6320801 8.4119873 9.8039551 6.5040283 13.644043 12.420044 6.5039062 6.5040283 6.5040283 12.563965 5.4000244 4.6320801 15 13.643921 12.564087 10.487915 12.828125 6.5039062 6.5040283 13.644043 10.487915 4.6320801 12.563965 13.644043 11.447998 9.2879639 13.644043 9.8039551 4.6320801 12.828003 13.644043 6.5039062 20.208008 4.6320801 12.828003 12.419922 12.828003 9.2879639 4.6320801 10.488037 12.828003 20.208008 5.3999023 4.6320801 13.73999 9.2878418 6.5041504 12.563965 20.208008 4.6320801 13.572021 13.643799 12.564209 9.8039551 12.827881 9.2880859 9.4560547 12.563965 4.6320801 6.5039062 12.563965 11.447998 13.644043 10.488037 4.6320801 10.488037 12.827881 13.679932 4.6320801 12.407959 12.828125 6.5039062 6.5041504 9.2878418 4.6320801 6.5039062 20.208008 13.572021 12.828125 9.8039551 13.679932 6.5039062 12.828125 9.2880859 4.6318359 13.680176 6.5039062 13.679932 12.828125 13.644043 13.679932 13.644043 20.208008 5.3999023 4.6320801 12.875977 12.827881 13.680176 4.6318359 12.564209 4.6318359 6.5041504 13.644043 9.8039551 12.827881 20.208008 4.6320801 13.644043 9.2878418 4.6320801 12.828125 10.488037 9.2878418 4.6320801 9.2878418 6.5041504 13.644043 11.447998 6.5039062 13.679932 13.644043 13.644043 9.2880859 4.6318359 11.447998 13.644043 13.644043 10.488037 12.827881 11.447998 9.2880859 12.827881 9.2880859 13.644043 12.827881 8.1721191 5.3999023 4.6320801 17.040039 12.827881 13.644043 12.828125 12.563965 13.644043 4.6318359 6.5041504 6.5039062 12.419922 13.644043 6.5041504 12.563965 5.3999023 4.6320801 12.875977 13.644043 10.488037 13.572021 12.828125 13.643799 13.680176 6.5039062 10.488037 10.488037 12.827881 4.6320801 8.4121094 12.827881 9.8039551 20.208008 12.828125 13.644043 9.2878418 13.644043 20.208008 5.3999023 4.6320801 13.73999 9.2880859 6.5039062 12.563965 20.208008 4.6320801 11.447998 13.644043 9.8039551 10.488037 13.644043 10.488037 4.6318359 13.572021 13.644043 9.8039551 13.644043 10.488037 4.6320801 6.5039062 13.644043 9.2880859 12.827881 9.8039551 13.680176 13.644043 20.207764 4.6320801 6.5041504 6.5039062 13.679932 12.828125 9.8039551 13.644043 5.3999023 4.6320801 7.5358887 13.644043 9.2880859 12.827881 12.420166 12.827881 9.8039551 4.6320801 12.563965 11.447998 11.447998 13.644043 20.208008 10.488037 12.563965 13.644043 5.3999023 4.6320801 7.5358887 13.644043 4.6323242 13.643555 12.564453 11.447754 4.6318359 13.644043 12.563965 13.680176 6.5039062 9.2880859 12.563965 10.488281 10.487793 12.828125 4.6318359 13.572266 6.5039062 12.563965 9.2880859 12.827637 12.564453 4.6318359 13.679688 6.5043945 11.447754 9.2880859 13.644043 20.208008 10.487793 9.2880859 5.3999023 4.6323242 12.875977 12.827637 13.680176 4.6318359 12.828125 6.5039062 12.828125 20.208008 12.828125 13.644043 9.2880859 13.644043 20.20752 5.4003906 4.6318359 8.4121094 12.828125 6.5039062 6.5039062 10.487793 4.6323242 13.679688 13.644043 6.5039062 10.488281 4.6318359 13.572266 13.644043 9.8037109 9.2880859 9.2880859 6.5039062 9.2880859 13.644043 9.8037109 4.6323242 10.487793 13.644043 6.5039062 6.5043945 6.5039062 11.447754 6.5039062 9.2880859 13.644043 13.680176 6.5039062 13.644043 5.3999023 4.6318359 12.564453 13.644043 12.419922 13.644043 12.827637 4.6323242 13.644043 13.644043 6.5039062 6.5039062 12.563965 4.6318359 10.488281 13.644043 13.679688 12.564453 6.5039062 12.827637 10.488281 4.6318359 10.488281 12.563965 13.571777 6.5039062 12.828125 13.644043 5.3999023 4.6323242 10.487793 6.5039062 9.2880859 4.6323242 12.563965 20.208008 12.827637 9.2880859 4.6318359 13.572266 13.644043 10.487793 13.644043 12.828125 9.8041992 12.827637 4.6323242 13.679688 13.644043 12.563965 20.208008 4.6323242 13.571777 13.644043 9.8041992 13.644043 10.487793 4.6323242 12.563965 9.2875977 4.6323242 6.5039062 12.563965 11.448242 13.643555 10.488281 5.3999023 4.6318359 17.040039 12.828125 13.644043 12.828125 12.563965 13.644043 4.6318359 6.5039062 13.644043 11.448242 9.2880859 13.644043 10.487793 4.6318359 12.804199 13.644043 6.5039062 13.572266 13.643555 9.2880859 12.563965 9.2880859 12.828125 4.6318359 9.2880859 13.644043 9.8041992 13.571777 6.5039062 10.488281 5.3999023 4.6318359 15 13.644043 12.563965 10.488281 12.828125 6.5039062 6.5039062 13.644043 10.487793 4.6323242 12.563965 13.644043 11.447754 9.2880859 13.644043 9.8037109 4.6323242 12.828125 13.644043 6.5039062 20.208008 4.6318359 12.828125 12.419922 12.828125 9.2875977 4.6323242 10.487793 12.828125 20.208008 5.3999023 4.6323242 18.143555 12.564453 20.208008 4.6318359 9.8041992 13.643555 13.644043 13.644043 11.448242 13.644043 10.487793 5.3999023 4.6323242 6.5039062 12.828125 11.447754 9.2880859 13.644043 10.487793 4.6323242 12.407715 12.828125 6.5039062 4.6323242 13.644043 12.827637 13.644043 13.680176 9.8041992 12.827637 9.8041992 6.5039062 9.2880859 4.6318359 11.448242 13.644043 13.644043 12.419922 13.644043 12.827637 5.4003906 4.6318359 13.644043 6.5039062 10.488281 6.5039062 4.6318359 6.5039062 13.644043 9.8041992 12.828125 20.208008 4.6318359 8.4121094 12.827637 13.644043 12.42041 6.5039062 12.563965 9.2880859 4.6318359 12.563965 13.644043 9.2880859 12.828125 5.3999023 4.6318359 6.5039062 13.644043 4.6323242 8.4116211 12.828125 9.8041992 20.208008 12.828125 13.643555 9.2880859 13.644043 20.208008 4.6318359 12.828125 9.4560547 12.563965 9.2880859 4.6318359 13.644043 13.644043 6.5039062 6.5043945 12.563965 4.6318359 9.2880859 9.8041992 6.5039062 10.487793 9.2880859 6.5039062 13.680176 13.644043 12.827637 4.6323242 12.563965 9.8041992 11.447754 13.644043 5.3999023 4.6323242"
         style="font-weight:bold;font-family:Lato;-inkscape-font-specification:'Lato Bold'"
         id="tspan32115">pharetra lacus sed velit imperdiet bibendum. Pellentesque suscipit accumsan massa. Nam consectetuer mollis dolor. Donec interdum vestibulum libero. Sed fringilla. Phasellus auctor enim eget sem. Etiam pharetra lacus sed velit imperdiet bibendum. Sed a lorem ut est tincidunt consectetuer. Aenean ligula. Suspendisse fermentum. Etiam cursus purus interdum libero. Integer accumsan. In hac habitasse platea dictumst. Sed elementum, felis quis porttitor sollicitudin, augue nulla sodales sapien, sit amet posuere quam purus at lacus. Aenean luctus vulputate turpis. Phasellus auctor enim eget sem. Nam rhoncus, lectus vel hendrerit congue, nisl lorem feugiat ante, in fermentum erat nulla tristique arcu. 
</tspan></tspan><tspan
       x="0"
       y="3474.135"
       id="tspan32121"><tspan
         style="font-weight:bold;font-family:Lato;-inkscape-font-specification:'Lato Bold'"
         id="tspan32119">
</tspan></tspan><tspan
       x="0"
       y="3504.618"
       id="tspan32125"><tspan
         dx="0 14.640015 12.828003 6.5039978 6.5039978 12.828003 13.644012 9.2879791 12.828003 10.488007 13.679993 13.644012 12.828003 4.632019 11.447983 13.644012 13.644012 13.679993 6.5039978 20.207977 12.828003 13.644012 9.2879639 13.644043 20.207947 4.632019 8.4120178 12.828003 6.5039978 6.5039978 10.488007 4.632019 12.564026 4.632019 10.487976 12.828003 20.208008 5.3999939 4.632019 16.09201 6.5039673 12.564026 10.488007 10.488007 4.632019 12.564026 13.571991 9.2879944 12.828003 13.643982 9.2880249 4.631958 9.2880249 12.564026 11.447937 6.5040283 9.2879639 6.5039673 4.6320801 10.487976 13.643982 11.447998 6.5040283 13.643982 10.488037 13.679993 13.643982 4.632019 12.564026 13.679993 4.632019 6.5039673 6.5040283 9.2879639 13.644043 9.4559937 12.564026 4.632019 9.2879639 13.644043 9.8040161 13.679993 13.643982 12.828003 13.644043 9.2879639 4.632019 13.572021 12.828003 9.8040161 4.632019 11.447937 13.644043 13.644043 13.643982 13.679993 6.5040283 12.563965 4.6320801 13.643921 13.644043 10.488037 9.2879639 9.4560547 12.563965 5.4000244 4.631958 13.572021 12.828003 9.8040771 4.631958 6.5040283 13.644043 11.447998 12.828003 13.572021 9.2879639 13.644043 10.487915 4.6320801 13.212036 12.803955 20.208008 12.828003 13.644043 12.563965 12.828003 13.644043 10.488037 5.3999023 4.6320801 12.875977 12.828003 13.680054 4.631958 13.644043 13.644043 13.643921 4.6320801 6.5040283 13.572021 10.487915 13.644043 20.208008 5.4000244 4.631958 18.144043 12.563965 20.208008 4.6320801 20.207886 12.564087 10.488037 10.487915 12.564087 4.631958 9.2879639 13.644043 9.8039551 13.572021 6.5040283 10.488037 5.4000244 4.631958 13.644043 13.644043 13.643921 13.644043 20.208008 19.776001 12.803955 4.6320801 12.828003 9.2879639 5.4000244 4.631958 11.447998 13.644043 13.644043 10.487915 12.828125 11.447876 9.2879639 12.828125 9.2879639 13.643921 12.828003 9.8040771 4.631958 6.5040283 13.679932 5.4001465 4.6320801 13.571777 6.5041504 12.563965 11.447998 12.827881 9.4560547 12.564209 9.2878418 4.6320801 12.563965 11.447998 5.3999023 4.6320801 12.563965 13.644043 9.2880859 12.827881 5.4001465 4.6318359 17.940186 13.643799 13.644043 12.828125 11.447998 4.6320801 13.679932 6.5039062 12.563965 20.208008 4.6320801 12.828125 9.8039551 13.644043 10.488037 5.3999023 4.6320801 9.2878418 9.8041992 6.5039062 10.488037 9.2878418 6.5041504 13.679932 13.644043 12.827881 4.6320801 10.488037 6.5039062 9.2880859 4.6320801 12.563965 20.208008 12.827881 9.2880859 5.3999023 4.6320801 13.572021 9.8039551 12.828125 9.2878418 6.5041504 13.643799 20.208008 4.6320801 12.407959 12.828125 6.5039062 5.4001465 4.6318359 13.572021 12.828125 6.5039062 6.5041504 12.827881 13.644043 9.2878418 12.828125 10.488037 13.679932 13.644043 12.827881 4.6320801 13.644043 9.2880859 5.3999023 4.6320801 13.644043 12.827881 13.679932 13.644043 12.828125 5.3999023 4.6320801 22.320068 12.563965 13.644043 9.8039551 6.5039062 10.488037 4.6320801 12.563965 11.447998 4.6320801 20.208008 12.563965 10.488037 10.488037 12.563965 4.6320801 12.407959 12.827881 10.488037 9.2880859 6.5039062 13.679932 13.644043 6.5041504 13.644043 20.207764 4.6320801 13.644043 6.5039062 10.488037 6.5041504 4.6318359 8.4121094 12.563965 11.447998 6.5041504 6.5039062 6.5039062 10.488037 6.5041504 10.487793 4.6320801 12.803955 6.5041504 12.407959 12.827881 9.8041992 9.4560547 12.563965 5.3999023 4.6320801 12.875977 12.828125 13.679932 4.6320801 13.679932 13.644043 6.5039062 13.644043 8.1721191 5.3999023 4.6320801 22.319824 12.564209 13.644043 9.8039551 6.5039062 10.488037 4.6320801 9.2878418 12.828125 20.208008 13.572021 13.643799 9.8041992 4.6318359 13.644043 6.5041504 9.2878418 9.8041992 6.5039062 11.447998 12.827881 10.488037 4.6320801 6.4560547 13.644043 10.487793 9.2880859 13.644043 5.3999023 4.6320801 17.939941 13.644043 13.644043 12.827881 11.447998 4.6320801 12.563965 9.2880859 4.6320801 13.679932 6.5039062 12.563965 20.208008 4.6323242 12.563965 4.6318359 9.2880859 12.828125 6.5039062 6.5039062 13.644043 10.487793 4.6323242 13.679688 6.5039062 12.42041 13.644043 6.5039062 10.487793 10.488281 6.5039062 20.208008 4.6318359 12.408203 12.827637 10.488281 9.2880859 6.5039062 13.680176 13.643555 6.5043945 13.644043 20.208008 5.3999023 4.6318359 18.144043 12.563965 20.208008 4.6318359 11.448242 13.644043 13.644043 10.487793 12.828125 11.447754 9.2880859 12.828125 9.2880859 13.644043 12.827637 9.8041992 4.6318359 20.208008 13.644043 6.5043945 6.5039062 6.5039062 10.487793 4.6323242 13.679688 13.644043 6.5039062 13.644043 8.1723633 5.3999023 4.6318359 17.040039 12.828125 13.644043 12.828125 12.563965 13.644043 4.6318359 6.5039062 13.680176 4.6318359 13.572266 13.644043 9.8037109 13.644043 10.488281 5.3999023 4.6318359 18.144043 12.563965 20.208008 4.6318359 11.448242 13.644043 13.644043 10.487793 12.828125 11.447754 9.2880859 12.828125 9.2880859 13.644043 12.827637 9.8041992 4.6323242 20.20752 13.644043 6.5043945 6.5039062 6.5039062 10.487793 4.6323242 13.679688 13.644043 6.5039062 13.644043 8.1723633 5.3999023 4.6318359 17.040039 6.5039062 12.804199 12.563965 20.208008 13.644043 10.487793 4.6323242 13.571777 13.644043 10.488281 13.644043 12.827637 9.8041992 12.828125 5.3999023 4.6318359 12.563965 13.644043 9.2880859 12.828125 4.6318359 12.828125 13.644043 4.6318359 9.2880859 12.828125 20.208008 13.571777 13.644043 9.8041992 4.6318359 13.680176 6.5039062 11.447754 9.2880859 13.644043 20.208008 5.3999023 4.6323242 8.4116211 12.828125 6.5039062 6.5043945 10.487793 4.6318359 13.644043 6.5043945 13.679688 13.644043 4.6318359 8.4121094 12.563965 11.448242 6.5039062 6.5039062 6.5039062 10.488281 6.5039062 10.487793 4.6323242 10.487793 12.828125 20.208008 5.3999023 4.6318359 12.828125 13.644043 4.6323242 12.563965 13.644043 11.447754 9.2880859 13.644043 9.8037109 4.6323242 20.208008 12.827637 9.2880859 13.644043 10.488281 4.6318359 13.644043 13.644043 6.5039062 6.5039062 12.563965 4.6323242 13.644043 13.644043 13.644043 4.6318359 6.5039062 13.644043 9.8041992 12.827637 20.208008 5.4003906 4.6318359 13.739746 9.2880859 6.5039062 12.564453 20.20752 4.6323242 8.4121094 12.827637 9.8041992 20.208008 12.828125 13.644043 9.2875977 13.644043 20.208008 5.3999023 4.6323242 14.640137 12.827637 6.5043945 6.5039062 12.828125 13.643555 9.2880859 12.828125 10.487793 13.680176 13.644043 12.828125 4.6318359 12.828125 9.2880859 4.6318359 12.563965 9.8041992 11.447754 13.644043 5.3999023 4.6323242 12.875977 12.828125 13.679688 4.6323242 12.563965 4.6318359 6.5039062 13.644043 9.8041992 12.828125 20.20752 4.6323242 13.644043 9.2880859 4.6318359 12.828125 10.487793 9.2880859 4.6318359 9.2880859 6.5039062 13.644043 11.448242 6.5039062 13.679688 13.644043 13.644043 9.2880859 4.6318359 11.448242 13.644043 13.644043 10.487793 12.828125 11.447754 9.2880859 12.828125 9.2880859 13.644043 12.827637 8.1723633 5.3999023 4.6318359 12.875977 13.644043 10.488281 13.571777 12.828125 13.644043 13.680176 6.5039062 10.487793 10.488281 12.827637 4.6323242 12.803711 6.5043945 12.407715 12.828125 9.8041992 9.4560547 12.563965 4.6318359 13.571777 6.5043945 12.563965 11.447754 12.828125 9.4560547 12.563965 9.2880859 4.6318359 9.2880859 13.644043 9.8037109 9.2880859 13.644043 8.171875 5.4003906 4.6318359 13.740234 9.2875977 6.5043945 12.563965 20.208008 4.6318359 10.487793 13.644043 13.680176 12.563965 6.5039062 12.828125 10.487793 4.6323242 13.644043 9.8037109 11.448242 6.5039062 4.6318359 13.644043 12.828125 11.448242 4.6318359 6.5039062 6.5039062 12.419922 13.644043 6.5043945 12.563965 5.3999023 4.6318359 18.144043 13.644043 6.5039062 6.5043945 12.563965 4.6318359 13.680176 6.5039062 12.563965 13.644043 13.679688 6.5043945 9.2875977 4.6323242 6.4560547 13.644043 10.487793 9.2880859 13.644043 4.6318359 12.563965 4.6323242 20.208008 12.827637 9.2880859 13.644043 10.487793 5.4003906 4.6318359 17.039551 6.5048828 6.5039062 13.679688 13.643555 12.564453 20.208008 4.6318359 12.408203 12.828125 6.5039062 6.5039062 9.2880859 4.6318359 13.679688 13.644531 6.5039062 5.4003906 4.6318359 11.447266 13.644531 20.208008 20.208008 13.643555 13.680664 13.643555 4.6318359 13.680664 13.643555 6.5039062 10.488281 5.4003906 4.6318359 13.571289 13.644531 9.8037109 9.2880859 9.2880859 6.5039062 9.2880859 13.643555 9.8046875 4.6318359 12.828125 12.419922 12.828125 9.2880859 5.3994141 4.6318359 11.448242 13.644531 13.211914 12.803711 12.564453 6.5039062 6.5039062 6.5039062 10.488281 4.6318359 12.828125 9.2880859 5.3994141 4.6318359 13.644531 6.5039062 10.488281 6.5039062 5.3994141 4.6328125 12.875977 13.643555 10.488281 13.572266 12.827148 13.644531 13.679688 6.5039062 10.488281 10.488281 12.828125 4.6318359 13.571289 13.644531 9.2880859 12.828125 13.643555 9.2880859 6.5039062 5.4003906 4.6318359 17.94043 13.643555 13.643555 12.828125 11.448242 4.6318359 13.644531 9.2880859 4.6318359 13.572266 13.643555 9.8037109 13.644531 10.488281 5.3994141 4.6318359 17.040039 12.828125 13.644531 12.827148 12.564453 13.643555 4.6328125 13.643555 6.5039062 9.2880859 9.8037109 6.5048828 11.447266 12.828125 10.488281 4.6318359 9.2880859 13.643555 9.8046875 13.571289 6.5048828 10.487305 5.4003906 4.6318359 12.875977 13.644531 10.487305 13.572266 12.828125 13.643555 13.680664 6.5039062 10.487305 10.488281 12.828125 4.6318359 20.208008 13.644531 6.5039062 12.828125 10.487305 9.2880859 6.5039062 12.828125 4.6318359 10.488281 12.828125 20.208008 5.4003906 4.6318359 15 9.4560547 12.563477 12.828125 10.488281 12.828125 13.643555 9.2880859 4.6318359 12.564453 4.6318359 6.5039062 12.564453 11.447266 13.644531 10.488281 4.6318359 12.803711 6.5039062 9.2880859 12.564453 12.828125 4.6318359 9.2880859 13.643555 9.8037109 13.572266 6.5039062 10.488281 4.6318359 11.448242 13.643555 13.644531 10.488281 12.827148 13.680664 13.643555 12.564453 9.2880859 4.6318359 10.488281 12.827148 20.208008 13.572266 12.828125 8.171875 5.4003906"
         style="font-weight:bold;font-family:Lato;-inkscape-font-specification:'Lato Bold'"
         id="tspan32123">Pellentesque condimentum felis a sem. Class aptent taciti sociosqu ad litora torquent per conubia nostra, per inceptos hymenaeos. Sed non ipsum. Nam massa turpis, nonummy et, consectetuer id, placerat ac, ante. Donec diam eros, tristique sit amet, pretium vel, pellentesque ut, neque. Mauris ac massa vestibulum nisl facilisis viverra. Sed dolor. Mauris tempor ultrices justo. Donec at diam a tellus dignissim vestibulum. Nam consectetuer mollis dolor. Aenean id purus. Nam consectetuer mollis dolor. Vivamus posuere, ante eu tempor dictum, felis nibh facilisis sem, eu auctor metus nulla non lorem. Etiam fermentum. Pellentesque et arcu. Sed a lorem ut est tincidunt consectetuer. Suspendisse viverra placerat tortor. Etiam sodales orci nec ligula. Nulla blandit justo a metus. Aliquam velit dui, commodo quis, porttitor eget, convallis et, nisi. Suspendisse potenti. Donec ut purus. Aenean ultrices turpis. Suspendisse molestie sem. Praesent a lacus vitae turpis consequat semper. </tspan></tspan></text>
</svg>
