<?xml version="1.0" encoding="UTF-8" standalone="no"?>
<svg xmlns:rdf="http://www.w3.org/1999/02/22-rdf-syntax-ns#" xmlns="http://www.w3.org/2000/svg" version="1.1" xmlns:cc="http://creativecommons.org/ns#" xmlns:xlink="http://www.w3.org/1999/xlink" viewBox="0 0 24 24" xmlns:dc="http://purl.org/dc/elements/1.1/">
<metadata>
<rdf:RDF>
<cc:Work rdf:about="">
<dc:format>image/svg+xml</dc:format>
<dc:type rdf:resource="http://purl.org/dc/dcmitype/StillImage"/>
</cc:Work>
</rdf:RDF>
</metadata>
<defs>
<linearGradient id="a">
<stop stop-color="#fff" offset="0"/>
<stop stop-color="#98b6d3" offset="1"/>
</linearGradient>
<linearGradient id="c" y2="234.0031" xlink:href="#a" gradientUnits="userSpaceOnUse" x2="112.201" gradientTransform="matrix(1.13356,0,0,1.133368,339.5737,-131.407)" y1="221.0688" x1="101.0939"/>
<linearGradient id="b" y2="188.4128" xlink:href="#a" gradientUnits="userSpaceOnUse" x2="176.8627" gradientTransform="matrix(.809546 0 0 .809417 342.9983 -4.125322)" y1="157.8208" x1="144.0824"/>
</defs>
<g transform="translate(-450,-115)">
<rect style="color:#000000" height="24" width="24" y="115" x="450" stroke-width="1.0000001" fill="none"/>
<rect stroke-linejoin="round" style="color:#000000" height="18.99178" width="18.99167" stroke="#000" stroke-miterlimit="0" y="117.5082" x="452.5083" fill="none"/>
<rect stroke-linejoin="round" style="color:#000000" fill-rule="evenodd" height="17" width="17" stroke="url(#b)" stroke-miterlimit="0" y="118.5" x="453.5" stroke-width=".9999998" fill="url(#c)"/>
</g>
</svg>
